20

4 11
1
t 1 1 n
120 13

2 8
10
r 0 0 n
r 0 4 n
f 1 4 s
t 1 0 e
h 1 0 n
f 1 2 n
f 0 0 s
r 1 0 n
r 1 0 e
h 1 4 w
371 38

20 4
20
r 2 2 n
h 9 0 w
f 6 1 n
r 5 1 e
r 13 1 w
t 18 3 e
f 3 0 e
h 2 3 w
h 6 1 s
h 3 1 n
h 13 1 e
f 15 2 s
t 14 2 e
r 9 3 s
t 6 1 n
f 18 0 w
t 17 0 n
h 18 3 n
t 17 0 n
r 19 0 n
493 29

20 18
16
f 15 13 w
f 15 2 e
r 2 16 s
h 18 2 n
h 0 12 e
h 17 9 e
t 8 13 w
r 2 9 s
h 12 14 s
h 13 1 w
t 3 0 w
h 12 16 s
f 11 6 w
f 13 1 e
h 19 17 s
h 16 15 s
5 35

7 15
5
h 5 13 e
h 1 9 s
r 3 10 e
t 4 4 w
f 6 5 e
334 47

11 15
10
f 0 3 e
r 9 6 e
h 7 9 e
r 7 14 s
f 7 10 w
h 6 5 s
f 1 2 w
f 9 9 e
t 1 2 s
t 7 2 e
311 15

13 2
14
h 6 1 w
f 10 1 w
t 1 0 w
f 11 1 s
h 9 0 n
t 11 0 w
h 3 1 w
h 5 0 s
r 2 1 e
f 6 1 s
r 1 1 n
f 6 0 s
f 2 1 s
r 5 0 w
419 42

19 3
18
f 16 2 s
r 18 0 e
f 9 0 e
h 7 1 w
t 12 1 n
t 13 2 n
f 3 2 n
t 4 0 w
r 18 2 e
f 13 0 e
f 3 2 w
f 16 2 e
r 1 2 n
f 13 2 n
t 8 0 w
f 1 1 n
f 4 2 n
r 7 1 w
74 34

10 3
3
t 3 0 s
f 7 2 e
h 5 0 n
394 16

18 20
17
f 3 19 s
f 8 16 e
f 3 2 e
f 4 1 s
f 5 0 w
f 13 8 n
t 3 6 s
t 3 7 w
f 11 9 w
r 12 15 s
h 4 3 w
h 16 4 n
h 0 14 w
h 8 9 e
f 6 19 w
r 4 2 e
h 14 0 e
201 47

15 10
14
h 3 9 w
h 0 1 e
f 11 1 e
h 0 5 s
r 8 7 e
t 3 6 s
t 7 5 s
f 6 3 s
r 9 3 w
t 8 3 e
f 2 3 n
h 6 8 s
t 3 5 n
h 1 9 n
119 22

6 18
18
h 4 5 e
h 4 16 e
t 5 5 e
t 5 11 n
f 3 15 w
f 1 7 s
r 2 6 n
h 2 13 n
r 3 12 e
t 4 9 n
f 3 13 e
h 0 8 w
f 5 0 w
r 2 16 e
t 2 1 s
h 1 13 n
h 0 6 s
h 2 9 s
293 45

11 12
1
r 0 7 s
143 46

20 1
15
h 4 0 w
h 9 0 s
h 14 0 n
f 3 0 w
f 6 0 e
h 2 0 n
h 15 0 n
t 10 0 n
r 12 0 s
t 16 0 n
t 1 0 w
t 10 0 n
f 4 0 e
h 11 0 e
t 18 0 e
210 12

17 1
9
f 7 0 e
r 14 0 w
t 14 0 n
t 6 0 s
h 1 0 n
r 8 0 w
r 1 0 s
f 13 0 s
r 6 0 s
379 18

9 11
17
r 1 8 e
r 4 2 e
r 6 6 e
f 2 5 e
t 3 7 e
t 2 4 n
t 3 8 s
r 0 6 w
f 6 3 n
t 5 1 s
f 0 5 n
r 1 0 n
t 2 1 w
h 1 9 w
h 5 7 n
r 7 10 w
h 8 2 s
184 40

11 11
6
r 9 5 n
t 7 6 w
r 4 7 w
h 3 4 n
f 7 6 e
h 8 7 s
365 31

19 4
6
h 9 3 e
f 9 2 w
r 2 2 n
f 9 1 w
t 17 0 n
r 14 1 s
119 36

7 9
12
t 4 2 w
r 5 2 n
r 5 3 e
f 2 7 s
f 5 0 n
f 3 4 e
h 4 1 s
f 3 7 w
h 4 1 e
t 2 3 n
t 2 7 n
f 6 3 e
489 49

3 5
4
h 2 3 s
t 1 1 s
h 2 2 e
h 1 1 s
152 25
