26

1 6
9
f 0 1 e
h 0 5 n
t 0 2 n
h 0 1 s
r 0 5 n
h 0 5 w
h 0 3 w
f 0 2 e
r 0 0 w
7 3

1 2
5
f 0 0 e
f 0 1 w
f 0 0 n
r 0 0 s
t 0 0 w
5 2

9 1
10
t 2 0 s
r 2 0 e
t 5 0 s
t 0 0 e
h 1 0 n
r 1 0 w
f 6 0 n
r 5 0 s
r 8 0 s
t 7 0 n
7 3

8 3
10
f 1 1 e
t 2 2 n
r 4 0 w
f 2 0 n
t 4 2 n
t 3 1 n
h 5 2 e
h 1 1 e
t 4 2 n
h 1 0 n
9 5

8 5
1
f 6 0 w
1 3

9 3
1
r 2 1 w
4 5

7 3
6
h 5 1 w
r 0 2 s
f 2 1 n
h 4 0 w
f 3 2 e
r 0 2 w
2 4

7 6
1
h 5 0 e
4 2

7 6
6
r 0 4 e
f 3 2 w
r 5 4 w
t 1 1 s
t 3 0 e
t 0 2 e
5 5

1 5
4
h 0 1 w
h 0 4 w
h 0 4 e
r 0 0 s
6 4

1 3
8
h 0 1 s
f 0 0 s
r 0 1 s
f 0 0 w
r 0 2 n
h 0 1 n
h 0 2 e
t 0 0 w
1 1

10 10
6
t 8 2 s
t 5 7 w
f 7 1 e
r 5 3 s
r 6 6 w
r 9 9 n
4 2

9 5
5
f 2 1 n
r 4 3 s
f 2 2 e
f 7 1 n
t 7 0 w
7 2

4 2
7
h 1 0 e
h 2 1 w
t 0 0 s
t 1 0 e
h 0 1 w
f 2 0 e
t 0 1 e
10 2

8 5
10
r 1 0 w
t 5 1 w
h 0 2 s
h 7 0 s
t 4 3 s
f 3 2 w
h 0 1 s
f 4 4 e
h 6 0 e
f 1 0 e
5 5

9 5
5
t 1 1 s
f 8 3 w
f 8 1 w
t 1 2 s
r 4 0 w
2 2

3 7
7
r 0 0 e
r 1 1 w
r 2 6 s
f 0 5 e
f 1 6 s
r 1 6 w
r 2 1 n
9 5

2 1
3
t 1 0 s
t 1 0 e
t 1 0 e
5 1

10 8
6
r 6 2 w
h 1 0 w
f 7 4 e
r 4 2 w
r 9 4 w
r 8 6 e
5 2

3 5
8
h 0 0 w
h 1 1 w
f 0 1 w
r 1 4 e
r 1 2 w
h 2 1 e
f 1 0 e
r 1 2 e
4 3

6 7
9
h 0 1 w
r 2 3 n
h 2 2 n
t 2 3 w
f 3 0 s
r 0 3 e
r 0 2 n
r 3 0 w
r 4 5 e
1 4

2 6
1
r 1 4 s
6 2

3 2
7
r 0 1 n
f 2 1 s
t 2 1 s
f 0 1 s
r 1 1 s
r 2 1 w
h 0 0 s
4 5

8 9
4
t 4 5 e
r 0 8 w
t 6 0 w
t 3 8 e
8 4

3 3
8
f 0 1 w
r 0 2 w
h 1 1 n
t 1 1 s
t 0 0 w
r 1 1 e
r 1 0 w
h 2 2 w
5 4

3 6
1
r 2 4 e
3 1
