22

178 129
13
h 174 75 e
h 107 8 w
t 138 43 w
h 163 74 e
t 31 87 s
f 123 17 e
r 56 65 e
f 152 86 e
h 52 10 e
f 161 61 w
h 89 64 s
f 26 112 w
h 160 45 n
1154 67

45 137
8
r 31 94 e
f 14 37 n
r 26 25 s
r 43 55 w
r 30 7 n
f 22 94 s
f 8 22 e
r 26 5 w
1425 173

23 80
9
f 20 65 w
h 4 33 e
f 20 19 e
t 8 26 w
t 9 34 s
f 13 9 n
r 3 14 n
t 4 58 n
f 16 56 n
1978 163

112 145
1
t 72 95 w
297 91

40 49
6
r 26 3 w
h 11 19 e
h 13 32 s
h 32 41 e
t 22 16 s
h 18 29 e
530 123

4 63
9
t 3 40 w
f 1 21 n
h 3 11 w
t 1 47 n
r 0 22 s
t 1 60 n
r 1 22 e
f 2 40 w
f 1 9 e
1546 43

33 88
5
t 18 76 w
t 3 79 s
t 29 17 e
t 10 76 e
t 20 1 s
741 192

61 100
2
f 29 86 e
r 52 83 s
1894 136

189 63
6
f 43 51 s
t 44 29 n
h 87 7 s
f 35 50 e
f 145 18 e
r 176 49 w
1607 187

169 49
1
f 34 39 w
834 158

13 23
5
h 9 1 w
t 8 4 s
f 0 8 s
f 1 2 e
f 1 6 s
357 7

38 128
1
t 0 2 n
322 178

9 65
3
f 0 0 n
f 6 25 e
f 1 15 s
502 12

88 19
11
r 30 7 n
h 4 1 e
h 37 0 e
f 27 13 e
t 12 4 n
r 3 13 s
f 38 18 s
f 85 16 n
r 82 13 w
r 12 15 s
t 86 1 w
1249 193

40 161
9
t 36 29 w
r 22 29 e
t 5 16 w
r 29 152 s
t 23 147 n
t 11 119 e
r 18 87 w
f 35 99 e
h 24 118 n
346 113

121 166
3
t 101 35 n
r 69 99 s
t 93 94 w
921 132

163 112
9
t 79 105 e
h 128 88 w
t 61 73 n
r 45 111 w
r 70 5 s
t 134 25 w
h 54 39 s
f 87 80 s
r 50 22 e
1234 135

140 62
14
r 0 29 w
f 26 47 e
t 127 52 s
r 121 19 n
t 41 5 n
f 70 27 s
r 12 28 w
h 56 50 n
r 90 3 e
r 93 51 e
t 19 45 w
f 72 17 e
h 55 36 e
t 11 54 n
1943 45

146 147
12
h 135 128 s
h 134 100 w
t 64 73 n
h 19 65 e
f 11 49 w
f 73 121 w
h 18 24 w
t 3 108 s
f 23 2 n
h 31 119 w
r 112 110 w
t 8 41 s
352 7

149 17
3
r 29 9 n
r 69 2 e
h 22 12 w
64 90

188 117
12
r 93 78 s
t 143 82 n
t 152 96 e
f 109 28 e
h 187 50 w
t 158 30 e
r 79 59 w
r 42 53 e
t 134 83 w
r 119 4 e
f 180 94 s
r 136 15 s
1011 23

4 63
10
t 1 26 n
f 1 15 w
h 0 19 e
h 1 41 e
h 0 53 w
f 3 24 e
t 0 35 n
h 1 62 e
t 0 50 e
r 0 17 s
1962 191
