*** Darwin 3x20 ***
Turn = 0.
  01234567890123456789
0 ...h................
1 ....................
2 ...h................

Turn = 67.
  01234567890123456789
0 h...................
1 ....................
2 ...................h

Turn = 134.
  01234567890123456789
0 h...................
1 ....................
2 ...................h

Turn = 201.
  01234567890123456789
0 h...................
1 ....................
2 ...................h

Turn = 268.
  01234567890123456789
0 h...................
1 ....................
2 ...................h

Turn = 335.
  01234567890123456789
0 h...................
1 ....................
2 ...................h

Turn = 402.
  01234567890123456789
0 h...................
1 ....................
2 ...................h

Turn = 469.
  01234567890123456789
0 h...................
1 ....................
2 ...................h

*** Darwin 6x19 ***
Turn = 0.
  0123456789012345678
0 ...................
1 ...................
2 ..r................
3 ...................
4 ...................
5 ...................

Turn = 53.
  0123456789012345678
0 .....r.............
1 ...................
2 ...................
3 ...................
4 ...................
5 ...................

Turn = 106.
  0123456789012345678
0 ..................r
1 ...................
2 ...................
3 ...................
4 ...................
5 ...................

Turn = 159.
  0123456789012345678
0 ...................
1 ...................
2 ...................
3 ...................
4 ...................
5 ..........r........

*** Darwin 3x7 ***
Turn = 0.
  0123456
0 ...t...
1 .t.th..
2 ..trr..

Turn = 18.
  0123456
0 ...t...
1 .t.tt..
2 ..ttt..

Turn = 36.
  0123456
0 ...t...
1 .t.tt..
2 ..ttt..

Turn = 54.
  0123456
0 ...t...
1 .t.tt..
2 ..ttt..

Turn = 72.
  0123456
0 ...t...
1 .t.tt..
2 ..ttt..

Turn = 90.
  0123456
0 ...t...
1 .t.tt..
2 ..ttt..

Turn = 108.
  0123456
0 ...t...
1 .t.tt..
2 ..ttt..

*** Darwin 19x11 ***
Turn = 0.
  01234567890
0 ...........
1 ...........
2 ...........
3 ...........
4 ...........
5 ...........
6 ...........
7 ...........
8 ......h....
9 ...........
0 ...........
1 ...........
2 h.........h
3 ...........
4 ...........
5 ...........
6 ...r.......
7 ...........
8 ......f....

Turn = 16.
  01234567890
0 h.........h
1 ...........
2 ...........
3 ...........
4 ...........
5 ...........
6 ...........
7 ...........
8 h..........
9 ...........
0 ...........
1 ...........
2 ...........
3 ...........
4 ...........
5 ...........
6 ...........
7 ...........
8 ......fr...

Turn = 32.
  01234567890
0 h.........h
1 ...........
2 ...........
3 ...........
4 ...........
5 ...........
6 ...........
7 ...........
8 h..........
9 ...........
0 rr.........
1 ...........
2 ...........
3 ...........
4 ...........
5 ...........
6 ...........
7 ...........
8 ...........

Turn = 48.
  01234567890
0 h.....r...h
1 ...........
2 ...........
3 ...........
4 ...........
5 ...........
6 ...........
7 ...........
8 ..........r
9 ..........r
0 ...........
1 ...........
2 ...........
3 ...........
4 ...........
5 ...........
6 ...........
7 ...........
8 ...........

Turn = 64.
  01234567890
0 rr.........
1 ...........
2 ...........
3 ...........
4 ...........
5 ...........
6 ...........
7 ...........
8 ...........
9 ..........r
0 ...........
1 ..........r
2 ...........
3 ..........r
4 ...........
5 ...........
6 ...........
7 ...........
8 ...........

*** Darwin 15x18 ***
Turn = 0.
  012345678901234567
0 ..................
1 ..................
2 ..................
3 ..................
4 ....f.............
5 ..................
6 ..................
7 ..................
8 ..................
9 ..................
0 .......r..........
1 ..................
2 .........t........
3 ..................
4 ..................

Turn = 29.
  012345678901234567
0 ........r.........
1 ..................
2 ..................
3 ..................
4 ....f.............
5 ..................
6 ..................
7 ..................
8 ..................
9 ..................
0 ..................
1 ..................
2 .........t........
3 ..................
4 ..................

Turn = 58.
  012345678901234567
0 ..................
1 ..................
2 ..................
3 ..................
4 ....f.............
5 ..................
6 ..................
7 ..................
8 ..................
9 ..................
0 ..................
1 ..................
2 .........t........
3 ..................
4 .............r....

Turn = 87.
  012345678901234567
0 ..................
1 ..................
2 ..................
3 ..................
4 ....f.............
5 ..................
6 ..................
7 ..................
8 ..................
9 ..................
0 ..................
1 ..................
2 .........t........
3 ..................
4 ..............r...

Turn = 116.
  012345678901234567
0 ..................
1 ..................
2 ..................
3 ..................
4 ....f.............
5 ..................
6 ..................
7 ..................
8 ..................
9 ..................
0 ..................
1 ..................
2 r........t........
3 ..................
4 ..................

Turn = 145.
  012345678901234567
0 ..................
1 ..................
2 ..................
3 ..................
4 ....f.............
5 ..................
6 ..................
7 ..................
8 ..................
9 ..................
0 ..................
1 ..................
2 .........t........
3 ..................
4 r.................

Turn = 174.
  012345678901234567
0 ..................
1 ..................
2 ..................
3 .................r
4 ....f.............
5 ..................
6 ..................
7 ..................
8 ..................
9 ..................
0 ..................
1 ..................
2 .........t........
3 ..................
4 ..................

Turn = 203.
  012345678901234567
0 ....r.............
1 ..................
2 ..................
3 ..................
4 ....f.............
5 ..................
6 ..................
7 ..................
8 ..................
9 ..................
0 ..................
1 ..................
2 .........t........
3 ..................
4 ..................

Turn = 232.
  012345678901234567
0 ...r..............
1 ..................
2 ..................
3 ..................
4 ....f.............
5 ..................
6 ..................
7 ..................
8 ..................
9 ..................
0 ..................
1 ..................
2 .........t........
3 ..................
4 ..................

Turn = 261.
  012345678901234567
0 ..................
1 ..................
2 ..................
3 ..................
4 ....f.............
5 r.................
6 ..................
7 ..................
8 ..................
9 ..................
0 ..................
1 ..................
2 .........t........
3 ..................
4 ..................

Turn = 290.
  012345678901234567
0 ..................
1 ..................
2 ..................
3 ..................
4 ....f.............
5 .................r
6 ..................
7 ..................
8 ..................
9 ..................
0 ..................
1 ..................
2 .........t........
3 ..................
4 ..................

*** Darwin 20x2 ***
Turn = 0.
  01
0 t.
1 ..
2 ..
3 ..
4 ..
5 .t
6 ..
7 ..
8 ..
9 ..
0 ..
1 ..
2 ..
3 ..
4 ..
5 ..
6 ..
7 ..
8 ..
9 ..

Turn = 24.
  01
0 t.
1 ..
2 ..
3 ..
4 ..
5 .t
6 ..
7 ..
8 ..
9 ..
0 ..
1 ..
2 ..
3 ..
4 ..
5 ..
6 ..
7 ..
8 ..
9 ..

Turn = 48.
  01
0 t.
1 ..
2 ..
3 ..
4 ..
5 .t
6 ..
7 ..
8 ..
9 ..
0 ..
1 ..
2 ..
3 ..
4 ..
5 ..
6 ..
7 ..
8 ..
9 ..

Turn = 72.
  01
0 t.
1 ..
2 ..
3 ..
4 ..
5 .t
6 ..
7 ..
8 ..
9 ..
0 ..
1 ..
2 ..
3 ..
4 ..
5 ..
6 ..
7 ..
8 ..
9 ..

Turn = 96.
  01
0 t.
1 ..
2 ..
3 ..
4 ..
5 .t
6 ..
7 ..
8 ..
9 ..
0 ..
1 ..
2 ..
3 ..
4 ..
5 ..
6 ..
7 ..
8 ..
9 ..

Turn = 120.
  01
0 t.
1 ..
2 ..
3 ..
4 ..
5 .t
6 ..
7 ..
8 ..
9 ..
0 ..
1 ..
2 ..
3 ..
4 ..
5 ..
6 ..
7 ..
8 ..
9 ..

Turn = 144.
  01
0 t.
1 ..
2 ..
3 ..
4 ..
5 .t
6 ..
7 ..
8 ..
9 ..
0 ..
1 ..
2 ..
3 ..
4 ..
5 ..
6 ..
7 ..
8 ..
9 ..

Turn = 168.
  01
0 t.
1 ..
2 ..
3 ..
4 ..
5 .t
6 ..
7 ..
8 ..
9 ..
0 ..
1 ..
2 ..
3 ..
4 ..
5 ..
6 ..
7 ..
8 ..
9 ..

Turn = 192.
  01
0 t.
1 ..
2 ..
3 ..
4 ..
5 .t
6 ..
7 ..
8 ..
9 ..
0 ..
1 ..
2 ..
3 ..
4 ..
5 ..
6 ..
7 ..
8 ..
9 ..

Turn = 216.
  01
0 t.
1 ..
2 ..
3 ..
4 ..
5 .t
6 ..
7 ..
8 ..
9 ..
0 ..
1 ..
2 ..
3 ..
4 ..
5 ..
6 ..
7 ..
8 ..
9 ..

Turn = 240.
  01
0 t.
1 ..
2 ..
3 ..
4 ..
5 .t
6 ..
7 ..
8 ..
9 ..
0 ..
1 ..
2 ..
3 ..
4 ..
5 ..
6 ..
7 ..
8 ..
9 ..

Turn = 264.
  01
0 t.
1 ..
2 ..
3 ..
4 ..
5 .t
6 ..
7 ..
8 ..
9 ..
0 ..
1 ..
2 ..
3 ..
4 ..
5 ..
6 ..
7 ..
8 ..
9 ..

Turn = 288.
  01
0 t.
1 ..
2 ..
3 ..
4 ..
5 .t
6 ..
7 ..
8 ..
9 ..
0 ..
1 ..
2 ..
3 ..
4 ..
5 ..
6 ..
7 ..
8 ..
9 ..

Turn = 312.
  01
0 t.
1 ..
2 ..
3 ..
4 ..
5 .t
6 ..
7 ..
8 ..
9 ..
0 ..
1 ..
2 ..
3 ..
4 ..
5 ..
6 ..
7 ..
8 ..
9 ..

Turn = 336.
  01
0 t.
1 ..
2 ..
3 ..
4 ..
5 .t
6 ..
7 ..
8 ..
9 ..
0 ..
1 ..
2 ..
3 ..
4 ..
5 ..
6 ..
7 ..
8 ..
9 ..

*** Darwin 3x10 ***
Turn = 0.
  0123456789
0 .......t.f
1 .........r
2 r.t....tt.

Turn = 28.
  0123456789
0 rr........
1 r.........
2 r.rr..r...

Turn = 56.
  0123456789
0 rr.......r
1 .r..r.....
2 rr........

Turn = 84.
  0123456789
0 r........r
1 r.....r...
2 .r.rr.....

Turn = 112.
  0123456789
0 r.r.r.....
1 .rr.......
2 r..r......

Turn = 140.
  0123456789
0 r...r...r.
1 r........r
2 ...rr.....

Turn = 168.
  0123456789
0 ...r.....r
1 ..rrr.....
2 r.r.......

Turn = 196.
  0123456789
0 .......r.r
1 r.......r.
2 r.r....r..

Turn = 224.
  0123456789
0 r.......rr
1 .........r
2 .r.....rr.

*** Darwin 3x19 ***
Turn = 0.
  0123456789012345678
0 .f.................
1 .......t.....r.....
2 .......f...........

Turn = 37.
  0123456789012345678
0 .f.................
1 .......tt..........
2 .......t...........

Turn = 74.
  0123456789012345678
0 .f.................
1 .......tt..........
2 .......t...........

Turn = 111.
  0123456789012345678
0 .f.................
1 .......tt..........
2 .......t...........

Turn = 148.
  0123456789012345678
0 .f.................
1 .......tt..........
2 .......t...........

Turn = 185.
  0123456789012345678
0 .f.................
1 .......tt..........
2 .......t...........

Turn = 222.
  0123456789012345678
0 .f.................
1 .......tt..........
2 .......t...........

Turn = 259.
  0123456789012345678
0 .f.................
1 .......tt..........
2 .......t...........

Turn = 296.
  0123456789012345678
0 .f.................
1 .......tt..........
2 .......t...........

Turn = 333.
  0123456789012345678
0 .f.................
1 .......tt..........
2 .......t...........

Turn = 370.
  0123456789012345678
0 .f.................
1 .......tt..........
2 .......t...........

Turn = 407.
  0123456789012345678
0 .f.................
1 .......tt..........
2 .......t...........

*** Darwin 14x18 ***
Turn = 0.
  012345678901234567
0 ..................
1 ..................
2 ..................
3 ..................
4 ..................
5 ..................
6 ..................
7 ..........t.......
8 ..................
9 ...............r..
0 ..................
1 ..................
2 tr................
3 ..................

Turn = 34.
  012345678901234567
0 ..................
1 ..................
2 ..................
3 ..................
4 ..................
5 ..................
6 ..................
7 ..........t.......
8 ..................
9 ..................
0 ..................
1 ..................
2 tt................
3 t.................

Turn = 68.
  012345678901234567
0 ..................
1 ..................
2 ..................
3 ..................
4 ..................
5 ..................
6 ..................
7 ..........t.......
8 ..................
9 ..................
0 ..................
1 ..................
2 tt................
3 t.................

Turn = 102.
  012345678901234567
0 ..................
1 ..................
2 ..................
3 ..................
4 ..................
5 ..................
6 ..................
7 ..........t.......
8 ..................
9 ..................
0 ..................
1 ..................
2 tt................
3 t.................

Turn = 136.
  012345678901234567
0 ..................
1 ..................
2 ..................
3 ..................
4 ..................
5 ..................
6 ..................
7 ..........t.......
8 ..................
9 ..................
0 ..................
1 ..................
2 tt................
3 t.................

Turn = 170.
  012345678901234567
0 ..................
1 ..................
2 ..................
3 ..................
4 ..................
5 ..................
6 ..................
7 ..........t.......
8 ..................
9 ..................
0 ..................
1 ..................
2 tt................
3 t.................

Turn = 204.
  012345678901234567
0 ..................
1 ..................
2 ..................
3 ..................
4 ..................
5 ..................
6 ..................
7 ..........t.......
8 ..................
9 ..................
0 ..................
1 ..................
2 tt................
3 t.................

Turn = 238.
  012345678901234567
0 ..................
1 ..................
2 ..................
3 ..................
4 ..................
5 ..................
6 ..................
7 ..........t.......
8 ..................
9 ..................
0 ..................
1 ..................
2 tt................
3 t.................

Turn = 272.
  012345678901234567
0 ..................
1 ..................
2 ..................
3 ..................
4 ..................
5 ..................
6 ..................
7 ..........t.......
8 ..................
9 ..................
0 ..................
1 ..................
2 tt................
3 t.................

Turn = 306.
  012345678901234567
0 ..................
1 ..................
2 ..................
3 ..................
4 ..................
5 ..................
6 ..................
7 ..........t.......
8 ..................
9 ..................
0 ..................
1 ..................
2 tt................
3 t.................

Turn = 340.
  012345678901234567
0 ..................
1 ..................
2 ..................
3 ..................
4 ..................
5 ..................
6 ..................
7 ..........t.......
8 ..................
9 ..................
0 ..................
1 ..................
2 tt................
3 t.................

Turn = 374.
  012345678901234567
0 ..................
1 ..................
2 ..................
3 ..................
4 ..................
5 ..................
6 ..................
7 ..........t.......
8 ..................
9 ..................
0 ..................
1 ..................
2 tt................
3 t.................

Turn = 408.
  012345678901234567
0 ..................
1 ..................
2 ..................
3 ..................
4 ..................
5 ..................
6 ..................
7 ..........t.......
8 ..................
9 ..................
0 ..................
1 ..................
2 tt................
3 t.................

Turn = 442.
  012345678901234567
0 ..................
1 ..................
2 ..................
3 ..................
4 ..................
5 ..................
6 ..................
7 ..........t.......
8 ..................
9 ..................
0 ..................
1 ..................
2 tt................
3 t.................

*** Darwin 10x10 ***
Turn = 0.
  0123456789
0 ..........
1 ..........
2 ..........
3 ..........
4 ..........
5 ..........
6 ..........
7 ..........
8 ..........
9 ........f.

Turn = 56.
  0123456789
0 ..........
1 ..........
2 ..........
3 ..........
4 ..........
5 ..........
6 ..........
7 ..........
8 ..........
9 ........f.

Turn = 112.
  0123456789
0 ..........
1 ..........
2 ..........
3 ..........
4 ..........
5 ..........
6 ..........
7 ..........
8 ..........
9 ........f.

Turn = 168.
  0123456789
0 ..........
1 ..........
2 ..........
3 ..........
4 ..........
5 ..........
6 ..........
7 ..........
8 ..........
9 ........f.

Turn = 224.
  0123456789
0 ..........
1 ..........
2 ..........
3 ..........
4 ..........
5 ..........
6 ..........
7 ..........
8 ..........
9 ........f.

Turn = 280.
  0123456789
0 ..........
1 ..........
2 ..........
3 ..........
4 ..........
5 ..........
6 ..........
7 ..........
8 ..........
9 ........f.

Turn = 336.
  0123456789
0 ..........
1 ..........
2 ..........
3 ..........
4 ..........
5 ..........
6 ..........
7 ..........
8 ..........
9 ........f.

Turn = 392.
  0123456789
0 ..........
1 ..........
2 ..........
3 ..........
4 ..........
5 ..........
6 ..........
7 ..........
8 ..........
9 ........f.

Turn = 448.
  0123456789
0 ..........
1 ..........
2 ..........
3 ..........
4 ..........
5 ..........
6 ..........
7 ..........
8 ..........
9 ........f.

*** Darwin 19x2 ***
Turn = 0.
  01
0 ..
1 .t
2 ..
3 .h
4 ..
5 ..
6 ..
7 ..
8 ..
9 ..
0 ..
1 ..
2 ..
3 ..
4 ..
5 ..
6 ..
7 ..
8 ..

Turn = 22.
  01
0 ..
1 .t
2 ..
3 .h
4 ..
5 ..
6 ..
7 ..
8 ..
9 ..
0 ..
1 ..
2 ..
3 ..
4 ..
5 ..
6 ..
7 ..
8 ..

Turn = 44.
  01
0 ..
1 .t
2 ..
3 .h
4 ..
5 ..
6 ..
7 ..
8 ..
9 ..
0 ..
1 ..
2 ..
3 ..
4 ..
5 ..
6 ..
7 ..
8 ..

Turn = 66.
  01
0 ..
1 .t
2 ..
3 .h
4 ..
5 ..
6 ..
7 ..
8 ..
9 ..
0 ..
1 ..
2 ..
3 ..
4 ..
5 ..
6 ..
7 ..
8 ..

Turn = 88.
  01
0 ..
1 .t
2 ..
3 .h
4 ..
5 ..
6 ..
7 ..
8 ..
9 ..
0 ..
1 ..
2 ..
3 ..
4 ..
5 ..
6 ..
7 ..
8 ..

Turn = 110.
  01
0 ..
1 .t
2 ..
3 .h
4 ..
5 ..
6 ..
7 ..
8 ..
9 ..
0 ..
1 ..
2 ..
3 ..
4 ..
5 ..
6 ..
7 ..
8 ..

Turn = 132.
  01
0 ..
1 .t
2 ..
3 .h
4 ..
5 ..
6 ..
7 ..
8 ..
9 ..
0 ..
1 ..
2 ..
3 ..
4 ..
5 ..
6 ..
7 ..
8 ..

Turn = 154.
  01
0 ..
1 .t
2 ..
3 .h
4 ..
5 ..
6 ..
7 ..
8 ..
9 ..
0 ..
1 ..
2 ..
3 ..
4 ..
5 ..
6 ..
7 ..
8 ..

Turn = 176.
  01
0 ..
1 .t
2 ..
3 .h
4 ..
5 ..
6 ..
7 ..
8 ..
9 ..
0 ..
1 ..
2 ..
3 ..
4 ..
5 ..
6 ..
7 ..
8 ..

Turn = 198.
  01
0 ..
1 .t
2 ..
3 .h
4 ..
5 ..
6 ..
7 ..
8 ..
9 ..
0 ..
1 ..
2 ..
3 ..
4 ..
5 ..
6 ..
7 ..
8 ..

Turn = 220.
  01
0 ..
1 .t
2 ..
3 .h
4 ..
5 ..
6 ..
7 ..
8 ..
9 ..
0 ..
1 ..
2 ..
3 ..
4 ..
5 ..
6 ..
7 ..
8 ..

Turn = 242.
  01
0 ..
1 .t
2 ..
3 .h
4 ..
5 ..
6 ..
7 ..
8 ..
9 ..
0 ..
1 ..
2 ..
3 ..
4 ..
5 ..
6 ..
7 ..
8 ..

Turn = 264.
  01
0 ..
1 .t
2 ..
3 .h
4 ..
5 ..
6 ..
7 ..
8 ..
9 ..
0 ..
1 ..
2 ..
3 ..
4 ..
5 ..
6 ..
7 ..
8 ..

Turn = 286.
  01
0 ..
1 .t
2 ..
3 .h
4 ..
5 ..
6 ..
7 ..
8 ..
9 ..
0 ..
1 ..
2 ..
3 ..
4 ..
5 ..
6 ..
7 ..
8 ..

Turn = 308.
  01
0 ..
1 .t
2 ..
3 .h
4 ..
5 ..
6 ..
7 ..
8 ..
9 ..
0 ..
1 ..
2 ..
3 ..
4 ..
5 ..
6 ..
7 ..
8 ..

Turn = 330.
  01
0 ..
1 .t
2 ..
3 .h
4 ..
5 ..
6 ..
7 ..
8 ..
9 ..
0 ..
1 ..
2 ..
3 ..
4 ..
5 ..
6 ..
7 ..
8 ..

Turn = 352.
  01
0 ..
1 .t
2 ..
3 .h
4 ..
5 ..
6 ..
7 ..
8 ..
9 ..
0 ..
1 ..
2 ..
3 ..
4 ..
5 ..
6 ..
7 ..
8 ..

Turn = 374.
  01
0 ..
1 .t
2 ..
3 .h
4 ..
5 ..
6 ..
7 ..
8 ..
9 ..
0 ..
1 ..
2 ..
3 ..
4 ..
5 ..
6 ..
7 ..
8 ..

Turn = 396.
  01
0 ..
1 .t
2 ..
3 .h
4 ..
5 ..
6 ..
7 ..
8 ..
9 ..
0 ..
1 ..
2 ..
3 ..
4 ..
5 ..
6 ..
7 ..
8 ..

Turn = 418.
  01
0 ..
1 .t
2 ..
3 .h
4 ..
5 ..
6 ..
7 ..
8 ..
9 ..
0 ..
1 ..
2 ..
3 ..
4 ..
5 ..
6 ..
7 ..
8 ..

Turn = 440.
  01
0 ..
1 .t
2 ..
3 .h
4 ..
5 ..
6 ..
7 ..
8 ..
9 ..
0 ..
1 ..
2 ..
3 ..
4 ..
5 ..
6 ..
7 ..
8 ..

Turn = 462.
  01
0 ..
1 .t
2 ..
3 .h
4 ..
5 ..
6 ..
7 ..
8 ..
9 ..
0 ..
1 ..
2 ..
3 ..
4 ..
5 ..
6 ..
7 ..
8 ..

*** Darwin 7x18 ***
Turn = 0.
  012345678901234567
0 ......r...........
1 ..................
2 ..................
3 .....t...........r
4 ..................
5 ..................
6 ..........r.......

Turn = 25.
  012345678901234567
0 ...r.r............
1 ..................
2 ..................
3 .....t............
4 ..................
5 ..................
6 r.................

Turn = 50.
  012345678901234567
0 ..................
1 ..................
2 .................r
3 .....t............
4 ..................
5 ..................
6 ..............rr..

Turn = 75.
  012345678901234567
0 r.................
1 .r................
2 ...r..............
3 .....t............
4 ..................
5 ..................
6 ..................

Turn = 100.
  012345678901234567
0 .............r....
1 ..................
2 ..................
3 .....t............
4 ..................
5 ..................
6 ..........r...r...

Turn = 125.
  012345678901234567
0 r........r........
1 ..................
2 ..................
3 .....t............
4 ..................
5 .................r
6 ..................

Turn = 150.
  012345678901234567
0 .................r
1 ..................
2 ..................
3 .....t...r........
4 ..................
5 ..................
6 ........r.........

Turn = 175.
  012345678901234567
0 ....r.............
1 ..................
2 ..................
3 .....t............
4 ..................
5 ..................
6 .r.............r..

Turn = 200.
  012345678901234567
0 ..................
1 ..................
2 ................r.
3 .....t............
4 ..................
5 ..................
6 ............r....r

*** Darwin 6x5 ***
Turn = 0.
  01234
0 .....
1 .....
2 .....
3 ..rt.
4 .....
5 .....

*** Darwin 16x9 ***
Turn = 0.
  012345678
0 .........
1 ........f
2 .........
3 .........
4 .........
5 .........
6 .........
7 .......hh
8 ...f.....
9 .........
0 .....r...
1 ...h.....
2 ....f....
3 ...r.....
4 .........
5 .r......f

Turn = 36.
  012345678
0 ....r....
1 .........
2 .........
3 .........
4 .........
5 .........
6 ........r
7 .......r.
8 r.....r..
9 .......r.
0 .........
1 .........
2 ....f...r
3 .........
4 .........
5 .......hf

Turn = 72.
  012345678
0 ..r......
1 ...r....r
2 r..r....r
3 ......r..
4 .r.......
5 .r.......
6 .........
7 .........
8 .........
9 .........
0 .........
1 .........
2 .........
3 r........
4 .........
5 .........

*** Darwin 4x17 ***
Turn = 0.
  01234567890123456
0 ......tr.........
1 .................
2 .................
3 .........t.......

Turn = 29.
  01234567890123456
0 ..r........r.....
1 .................
2 .................
3 .........t.......

Turn = 58.
  01234567890123456
0 .............r...
1 .................
2 .................
3 .........t.r.....

Turn = 87.
  01234567890123456
0 ......r..........
1 .................
2 .................
3 .........tt......

Turn = 116.
  01234567890123456
0 .......r.........
1 .................
2 .................
3 .........tt......

Turn = 145.
  01234567890123456
0 .................
1 .................
2 .................
3 .........tt.....r

Turn = 174.
  01234567890123456
0 .................
1 .................
2 .................
3 .........ttt.....

Turn = 203.
  01234567890123456
0 .................
1 .................
2 .................
3 .........ttt.....

Turn = 232.
  01234567890123456
0 .................
1 .................
2 .................
3 .........ttt.....

Turn = 261.
  01234567890123456
0 .................
1 .................
2 .................
3 .........ttt.....

Turn = 290.
  01234567890123456
0 .................
1 .................
2 .................
3 .........ttt.....

Turn = 319.
  01234567890123456
0 .................
1 .................
2 .................
3 .........ttt.....

Turn = 348.
  01234567890123456
0 .................
1 .................
2 .................
3 .........ttt.....

Turn = 377.
  01234567890123456
0 .................
1 .................
2 .................
3 .........ttt.....

Turn = 406.
  01234567890123456
0 .................
1 .................
2 .................
3 .........ttt.....

Turn = 435.
  01234567890123456
0 .................
1 .................
2 .................
3 .........ttt.....

Turn = 464.
  01234567890123456
0 .................
1 .................
2 .................
3 .........ttt.....

*** Darwin 8x15 ***
Turn = 0.
  012345678901234
0 ...............
1 .h.............
2 ...............
3 ..............f
4 ..t..th........
5 ......r...rt...
6 ...............
7 ...............

Turn = 91.
  012345678901234
0 .r....r.r...r..
1 ...............
2 ...............
3 r..............
4 ...............
5 ...............
6 ...............
7 ....r..r..r....

*** Darwin 19x14 ***
Turn = 0.
  01234567890123
0 ..............
1 ..............
2 ........f.....
3 .....h........
4 r........f....
5 .......r......
6 ..............
7 ..............
8 ..............
9 ............h.
0 ..............
1 ...h.....f....
2 ..............
3 ..............
4 .............t
5 ..............
6 .h............
7 ..............
8 ..............

Turn = 40.
  01234567890123
0 .h...hr.......
1 ..............
2 r.......f.....
3 ..............
4 ..............
5 ..............
6 ..............
7 ..............
8 ..............
9 ..............
0 ..............
1 ..............
2 .............r
3 ............rr
4 .............r
5 ............r.
6 ..............
7 ..............
8 ..............

*** Darwin 19x7 ***
Turn = 0.
  0123456
0 .......
1 .......
2 ..h....
3 .......
4 .f.....
5 .......
6 .......
7 .......
8 ......r
9 .......
0 .......
1 .......
2 .......
3 .......
4 .......
5 .......
6 .......
7 .......
8 .......

Turn = 36.
  0123456
0 r......
1 .......
2 .......
3 .......
4 .......
5 .......
6 .......
7 .......
8 .......
9 .......
0 ......r
1 .......
2 .......
3 .......
4 .r.....
5 .......
6 .......
7 .......
8 .......

Turn = 72.
  0123456
0 .......
1 .......
2 .......
3 .......
4 .......
5 ......r
6 .......
7 .......
8 .......
9 .......
0 .......
1 .......
2 .......
3 .......
4 .......
5 .......
6 .......
7 .......
8 rr.....

Turn = 108.
  0123456
0 .......
1 ....r..
2 .......
3 r......
4 .......
5 .......
6 .......
7 ......r
8 .......
9 .......
0 .......
1 .......
2 .......
3 .......
4 .......
5 .......
6 .......
7 .......
8 .......

Turn = 144.
  0123456
0 .......
1 .......
2 .......
3 .......
4 .......
5 .......
6 .......
7 r......
8 .......
9 .......
0 .......
1 ......r
2 ......r
3 .......
4 .......
5 .......
6 .......
7 .......
8 .......

*** Darwin 4x20 ***
Turn = 0.
  01234567890123456789
0 ............r.......
1 ...........h........
2 ....................
3 ..................h.

Turn = 90.
  01234567890123456789
0 ...........r....r...
1 h...................
2 ....................
3 ....................

Turn = 180.
  01234567890123456789
0 ....................
1 r...................
2 ....................
3 .r.....r............

Turn = 270.
  01234567890123456789
0 ...................r
1 ....................
2 ...................r
3 .................r..

*** Darwin 3x5 ***
Turn = 0.
  01234
0 .....
1 .....
2 ..f.f

Turn = 9.
  01234
0 .....
1 .....
2 ..f.f

Turn = 18.
  01234
0 .....
1 .....
2 ..f.f

Turn = 27.
  01234
0 .....
1 .....
2 ..f.f

Turn = 36.
  01234
0 .....
1 .....
2 ..f.f

Turn = 45.
  01234
0 .....
1 .....
2 ..f.f

Turn = 54.
  01234
0 .....
1 .....
2 ..f.f

Turn = 63.
  01234
0 .....
1 .....
2 ..f.f

Turn = 72.
  01234
0 .....
1 .....
2 ..f.f

*** Darwin 15x15 ***
Turn = 0.
  012345678901234
0 ...............
1 ...............
2 .............r.
3 ...............
4 ...............
5 ...............
6 ...............
7 ...............
8 ...............
9 ..............t
0 ...............
1 ...............
2 ...............
3 ...............
4 ...............

Turn = 50.
  012345678901234
0 ......r........
1 ...............
2 ...............
3 ...............
4 ...............
5 ...............
6 ...............
7 ...............
8 ...............
9 ..............t
0 ...............
1 ...............
2 ...............
3 ...............
4 ...............

Turn = 100.
  012345678901234
0 ...............
1 ...............
2 ...............
3 ...............
4 ...............
5 .r.............
6 ...............
7 ...............
8 ...............
9 ...............
0 ...............
1 ...............
2 ...............
3 ...............
4 .......r.......

Turn = 150.
  012345678901234
0 ...............
1 ...............
2 ..............r
3 ...............
4 ...............
5 ...............
6 ...............
7 ...............
8 ...............
9 ...............
0 ...............
1 ...............
2 ...............
3 ..r............
4 ...............

Turn = 200.
  012345678901234
0 ...............
1 ...............
2 ...............
3 ...............
4 ...............
5 ...............
6 r..............
7 ...............
8 ...............
9 ...............
0 ...............
1 ...............
2 ...............
3 ...............
4 ..............r

*** Darwin 2x14 ***
Turn = 0.
  01234567890123
0 ..............
1 ....f..r.....f

*** Darwin 13x8 ***
Turn = 0.
  01234567
0 ........
1 ......h.
2 ....t...
3 ........
4 ........
5 ........
6 ..t.f...
7 ........
8 .h.h....
9 .h......
0 .h......
1 ...f....
2 .....t..

Turn = 18.
  01234567
0 .h......
1 .......h
2 ....t...
3 ........
4 ........
5 ........
6 ..t.f...
7 ........
8 .......h
9 h.......
0 ...h....
1 ...f....
2 .....t..

Turn = 36.
  01234567
0 .h......
1 .......h
2 ....t...
3 ........
4 ........
5 ........
6 ..t.f...
7 ........
8 .......h
9 h.......
0 ...h....
1 ...f....
2 .....t..

Turn = 54.
  01234567
0 .h......
1 .......h
2 ....t...
3 ........
4 ........
5 ........
6 ..t.f...
7 ........
8 .......h
9 h.......
0 ...h....
1 ...f....
2 .....t..

Turn = 72.
  01234567
0 .h......
1 .......h
2 ....t...
3 ........
4 ........
5 ........
6 ..t.f...
7 ........
8 .......h
9 h.......
0 ...h....
1 ...f....
2 .....t..

Turn = 90.
  01234567
0 .h......
1 .......h
2 ....t...
3 ........
4 ........
5 ........
6 ..t.f...
7 ........
8 .......h
9 h.......
0 ...h....
1 ...f....
2 .....t..

Turn = 108.
  01234567
0 .h......
1 .......h
2 ....t...
3 ........
4 ........
5 ........
6 ..t.f...
7 ........
8 .......h
9 h.......
0 ...h....
1 ...f....
2 .....t..

Turn = 126.
  01234567
0 .h......
1 .......h
2 ....t...
3 ........
4 ........
5 ........
6 ..t.f...
7 ........
8 .......h
9 h.......
0 ...h....
1 ...f....
2 .....t..

Turn = 144.
  01234567
0 .h......
1 .......h
2 ....t...
3 ........
4 ........
5 ........
6 ..t.f...
7 ........
8 .......h
9 h.......
0 ...h....
1 ...f....
2 .....t..

Turn = 162.
  01234567
0 .h......
1 .......h
2 ....t...
3 ........
4 ........
5 ........
6 ..t.f...
7 ........
8 .......h
9 h.......
0 ...h....
1 ...f....
2 .....t..

Turn = 180.
  01234567
0 .h......
1 .......h
2 ....t...
3 ........
4 ........
5 ........
6 ..t.f...
7 ........
8 .......h
9 h.......
0 ...h....
1 ...f....
2 .....t..

Turn = 198.
  01234567
0 .h......
1 .......h
2 ....t...
3 ........
4 ........
5 ........
6 ..t.f...
7 ........
8 .......h
9 h.......
0 ...h....
1 ...f....
2 .....t..

Turn = 216.
  01234567
0 .h......
1 .......h
2 ....t...
3 ........
4 ........
5 ........
6 ..t.f...
7 ........
8 .......h
9 h.......
0 ...h....
1 ...f....
2 .....t..

Turn = 234.
  01234567
0 .h......
1 .......h
2 ....t...
3 ........
4 ........
5 ........
6 ..t.f...
7 ........
8 .......h
9 h.......
0 ...h....
1 ...f....
2 .....t..

Turn = 252.
  01234567
0 .h......
1 .......h
2 ....t...
3 ........
4 ........
5 ........
6 ..t.f...
7 ........
8 .......h
9 h.......
0 ...h....
1 ...f....
2 .....t..

Turn = 270.
  01234567
0 .h......
1 .......h
2 ....t...
3 ........
4 ........
5 ........
6 ..t.f...
7 ........
8 .......h
9 h.......
0 ...h....
1 ...f....
2 .....t..

Turn = 288.
  01234567
0 .h......
1 .......h
2 ....t...
3 ........
4 ........
5 ........
6 ..t.f...
7 ........
8 .......h
9 h.......
0 ...h....
1 ...f....
2 .....t..

Turn = 306.
  01234567
0 .h......
1 .......h
2 ....t...
3 ........
4 ........
5 ........
6 ..t.f...
7 ........
8 .......h
9 h.......
0 ...h....
1 ...f....
2 .....t..

Turn = 324.
  01234567
0 .h......
1 .......h
2 ....t...
3 ........
4 ........
5 ........
6 ..t.f...
7 ........
8 .......h
9 h.......
0 ...h....
1 ...f....
2 .....t..

Turn = 342.
  01234567
0 .h......
1 .......h
2 ....t...
3 ........
4 ........
5 ........
6 ..t.f...
7 ........
8 .......h
9 h.......
0 ...h....
1 ...f....
2 .....t..

Turn = 360.
  01234567
0 .h......
1 .......h
2 ....t...
3 ........
4 ........
5 ........
6 ..t.f...
7 ........
8 .......h
9 h.......
0 ...h....
1 ...f....
2 .....t..

Turn = 378.
  01234567
0 .h......
1 .......h
2 ....t...
3 ........
4 ........
5 ........
6 ..t.f...
7 ........
8 .......h
9 h.......
0 ...h....
1 ...f....
2 .....t..

Turn = 396.
  01234567
0 .h......
1 .......h
2 ....t...
3 ........
4 ........
5 ........
6 ..t.f...
7 ........
8 .......h
9 h.......
0 ...h....
1 ...f....
2 .....t..

Turn = 414.
  01234567
0 .h......
1 .......h
2 ....t...
3 ........
4 ........
5 ........
6 ..t.f...
7 ........
8 .......h
9 h.......
0 ...h....
1 ...f....
2 .....t..

Turn = 432.
  01234567
0 .h......
1 .......h
2 ....t...
3 ........
4 ........
5 ........
6 ..t.f...
7 ........
8 .......h
9 h.......
0 ...h....
1 ...f....
2 .....t..

*** Darwin 3x4 ***
Turn = 0.
  0123
0 .rt.
1 t.th
2 ..hh

Turn = 37.
  0123
0 t.t.
1 t.tt
2 ..tt

Turn = 74.
  0123
0 t.t.
1 t.tt
2 ..tt

Turn = 111.
  0123
0 t.t.
1 t.tt
2 ..tt

Turn = 148.
  0123
0 t.t.
1 t.tt
2 ..tt

Turn = 185.
  0123
0 t.t.
1 t.tt
2 ..tt

Turn = 222.
  0123
0 t.t.
1 t.tt
2 ..tt

Turn = 259.
  0123
0 t.t.
1 t.tt
2 ..tt

*** Darwin 19x1 ***
Turn = 0.
  0
0 .
1 .
2 .
3 .
4 .
5 .
6 .
7 .
8 .
9 .
0 h
1 .
2 .
3 .
4 f
5 t
6 .
7 .
8 f

Turn = 95.
  0
0 .
1 .
2 .
3 .
4 .
5 .
6 .
7 .
8 .
9 .
0 h
1 .
2 .
3 .
4 t
5 t
6 .
7 .
8 f

Turn = 190.
  0
0 .
1 .
2 .
3 .
4 .
5 .
6 .
7 .
8 .
9 .
0 h
1 .
2 .
3 .
4 t
5 t
6 .
7 .
8 f

*** Darwin 19x7 ***
Turn = 0.
  0123456
0 .......
1 .......
2 .......
3 .......
4 .......
5 .......
6 .......
7 .......
8 .......
9 .......
0 .......
1 ..r....
2 .......
3 .......
4 .......
5 .......
6 .......
7 t...r..
8 .......

Turn = 83.
  0123456
0 .......
1 .......
2 .......
3 .......
4 .......
5 .......
6 .......
7 .......
8 .......
9 .......
0 .......
1 .......
2 .......
3 .......
4 .......
5 .......
6 .......
7 t......
8 tt.....

Turn = 166.
  0123456
0 .......
1 .......
2 .......
3 .......
4 .......
5 .......
6 .......
7 .......
8 .......
9 .......
0 .......
1 .......
2 .......
3 .......
4 .......
5 .......
6 .......
7 t......
8 tt.....
