*** Darwin 9x9 ***
Turn = 0.
  012345678
0 ....t....
1 .........
2 .........
3 .........
4 .........
5 ..r......
6 ........r
7 .........
8 .........

Turn = 2.
  012345678
0 ....t....
1 .........
2 .........
3 .........
4 .........
5 .........
6 ......r..
7 ..r......
8 .........

Turn = 4.
  012345678
0 ....t....
1 .........
2 .........
3 .........
4 .........
5 .........
6 ....r....
7 .........
8 ..r......

Turn = 6.
  012345678
0 ....t....
1 .........
2 .........
3 .........
4 .........
5 .........
6 ..r......
7 .........
8 r........

Turn = 8.
  012345678
0 ....t....
1 .........
2 .........
3 .........
4 .........
5 .........
6 r........
7 .........
8 r........

*** Darwin 8x19 ***
Turn = 0.
  0123456789012345678
0 ..........t........
1 .....r.............
2 r..................
3 ...................
4 ..................t
5 ..r................
6 ......r............
7 ...................

Turn = 5.
  0123456789012345678
0 ........r.t........
1 ......r............
2 .....r.............
3 ...................
4 ..................t
5 .......r...........
6 ...................
7 ...................

*** Darwin 7x5 ***
Turn = 0.
  01234
0 ...t.
1 ..f..
2 ..h..
3 .h...
4 .....
5 ..fr.
6 .....

Turn = 1.
  01234
0 ...t.
1 ..f..
2 .h...
3 .h...
4 ...r.
5 ..f..
6 .....

Turn = 2.
  01234
0 ...t.
1 ..f..
2 hh...
3 ...r.
4 .....
5 ..f..
6 .....

Turn = 3.
  01234
0 ...t.
1 .hf..
2 h..r.
3 .....
4 .....
5 ..f..
6 .....

Turn = 4.
  01234
0 .h.t.
1 ..fr.
2 h....
3 .....
4 .....
5 ..f..
6 .....

Turn = 5.
  01234
0 .h.r.
1 ..fr.
2 h....
3 .....
4 .....
5 ..f..
6 .....

Turn = 6.
  01234
0 .h.r.
1 ..fr.
2 h....
3 .....
4 .....
5 ..f..
6 .....

Turn = 7.
  01234
0 .hr..
1 ..rr.
2 h....
3 .....
4 .....
5 ..f..
6 .....

Turn = 8.
  01234
0 .rr..
1 .rr..
2 h....
3 .....
4 .....
5 ..f..
6 .....

Turn = 9.
  01234
0 .rr..
1 rr...
2 h....
3 .....
4 .....
5 ..f..
6 .....

Turn = 10.
  01234
0 .rr..
1 rr...
2 h....
3 .....
4 .....
5 ..f..
6 .....

*** Darwin 3x9 ***
Turn = 0.
  012345678
0 .........
1 ...f.t...
2 .........

Turn = 7.
  012345678
0 .........
1 ...f.t...
2 .........

*** Darwin 4x18 ***
Turn = 0.
  012345678901234567
0 .........f........
1 ..................
2 ................f.
3 .........f........

Turn = 9.
  012345678901234567
0 .........f........
1 ..................
2 ................f.
3 .........f........

Turn = 18.
  012345678901234567
0 .........f........
1 ..................
2 ................f.
3 .........f........

*** Darwin 1x10 ***
Turn = 0.
  0123456789
0 h.h..t..h.

Turn = 8.
  0123456789
0 h.h..t...h

Turn = 16.
  0123456789
0 h.h..t...h

*** Darwin 8x10 ***
Turn = 0.
  0123456789
0 ..........
1 .t....t...
2 ....h..r..
3 ..........
4 ...f....h.
5 .......f..
6 ..........
7 ..........

Turn = 6.
  0123456789
0 .........r
1 .t....t...
2 h.........
3 ..........
4 ...fh.....
5 .......f..
6 ..........
7 ..........

Turn = 12.
  0123456789
0 ..........
1 .t....t...
2 h.........
3 ..........
4 ...fh....r
5 .......f..
6 ..........
7 ..........

*** Darwin 3x1 ***
Turn = 0.
  0
0 .
1 t
2 r

Turn = 5.
  0
0 r
1 r
2 .

Turn = 10.
  0
0 r
1 .
2 r

Turn = 15.
  0
0 r
1 r
2 .

*** Darwin 9x15 ***
Turn = 0.
  012345678901234
0 .....f.........
1 .t....h........
2 .r.............
3 ........r......
4 .....t.........
5 ...............
6 .f.............
7 ...............
8 ............h..

Turn = 4.
  012345678901234
0 .....f.........
1 .th............
2 .t.............
3 ....r..........
4 .....t.........
5 ...............
6 .f.............
7 ...............
8 ..............h

Turn = 8.
  012345678901234
0 .....f.........
1 .tt............
2 .t.............
3 r..............
4 .....t.........
5 ...............
6 .f.............
7 ...............
8 ..............h

Turn = 12.
  012345678901234
0 r....f.........
1 .tt............
2 .t.............
3 ...............
4 .....t.........
5 ...............
6 .f.............
7 ...............
8 ..............h

Turn = 16.
  012345678901234
0 .r...f.........
1 .tt............
2 .t.............
3 ...............
4 .....t.........
5 ...............
6 .f.............
7 ...............
8 ..............h

*** Darwin 9x9 ***
Turn = 0.
  012345678
0 .........
1 .........
2 .........
3 .........
4 r........
5 .........
6 .....t...
7 .........
8 .........

Turn = 3.
  012345678
0 .........
1 .........
2 .........
3 .........
4 ...r.....
5 .........
6 .....t...
7 .........
8 .........

Turn = 6.
  012345678
0 .........
1 .........
2 .........
3 .........
4 ......r..
5 .........
6 .....t...
7 .........
8 .........

Turn = 9.
  012345678
0 .........
1 .........
2 .........
3 .........
4 ........r
5 .........
6 .....t...
7 .........
8 .........

*** Darwin 9x8 ***
Turn = 0.
  01234567
0 ....r...
1 .r......
2 ..f...f.
3 r.......
4 .....h..
5 ......r.
6 .r......
7 .......h
8 ........

Turn = 4.
  01234567
0 r....h.r
1 ........
2 ..f...f.
3 ....r..h
4 ........
5 ........
6 ........
7 ........
8 ..r...r.

Turn = 8.
  01234567
0 ....rh..
1 .......r
2 ..f...fr
3 .......r
4 ........
5 ........
6 ........
7 ........
8 ....r.r.

*** Darwin 7x10 ***
Turn = 0.
  0123456789
0 ..........
1 f.........
2 ......f...
3 ..........
4 ..........
5 ..rt....h.
6 ........h.

Turn = 10.
  0123456789
0 .......rh.
1 f.........
2 ......f...
3 ..........
4 .........r
5 ..........
6 h.........

*** Darwin 5x19 ***
Turn = 0.
  0123456789012345678
0 .................t.
1 ...........h......f
2 .......r.........r.
3 ...................
4 ....h..............

Turn = 3.
  0123456789012345678
0 .......r.........t.
1 ..................f
2 ...................
3 ...................
4 .h.........h.....r.

*** Darwin 10x10 ***
Turn = 0.
  0123456789
0 ..........
1 ....h.....
2 ..........
3 ..........
4 ..........
5 ..........
6 ..........
7 ..........
8 .f........
9 ..........

Turn = 6.
  0123456789
0 ..........
1 .........h
2 ..........
3 ..........
4 ..........
5 ..........
6 ..........
7 ..........
8 .f........
9 ..........

Turn = 12.
  0123456789
0 ..........
1 .........h
2 ..........
3 ..........
4 ..........
5 ..........
6 ..........
7 ..........
8 .f........
9 ..........

*** Darwin 5x1 ***
Turn = 0.
  0
0 h
1 h
2 t
3 .
4 r

Turn = 3.
  0
0 h
1 h
2 t
3 .
4 r

Turn = 6.
  0
0 h
1 t
2 t
3 r
4 .

Turn = 9.
  0
0 t
1 t
2 t
3 t
4 .

Turn = 12.
  0
0 t
1 t
2 t
3 t
4 .

Turn = 15.
  0
0 t
1 t
2 t
3 t
4 .

Turn = 18.
  0
0 t
1 t
2 t
3 t
4 .

*** Darwin 10x3 ***
Turn = 0.
  012
0 r..
1 ...
2 ...
3 ...
4 t..
5 .t.
6 f..
7 .h.
8 ..t
9 .rt

Turn = 6.
  012
0 ...
1 ...
2 ...
3 ...
4 ..r
5 rr.
6 fr.
7 ...
8 ..t
9 r.t

*** Darwin 9x10 ***
Turn = 0.
  0123456789
0 ...h......
1 ....t.r...
2 r.......h.
3 ....r.....
4 ..........
5 ..........
6 h.........
7 ..........
8 ........fr

Turn = 1.
  0123456789
0 ....h.....
1 ....t.....
2 r.....r...
3 .....r..h.
4 ..........
5 ..........
6 ..........
7 h........r
8 ........f.

Turn = 2.
  0123456789
0 .....h....
1 r...t.....
2 ..........
3 .....rr...
4 ........h.
5 ..........
6 .........r
7 ..........
8 h.......f.

Turn = 3.
  0123456789
0 r.....h...
1 ....t.....
2 .....r....
3 ..........
4 ......r...
5 ........hr
6 ..........
7 ..........
8 h.......f.

Turn = 4.
  0123456789
0 r......h..
1 ....tr....
2 ..........
3 ..........
4 .........r
5 ......r...
6 ........h.
7 ..........
8 h.......f.

Turn = 5.
  0123456789
0 .r...r..h.
1 ....t.....
2 ..........
3 .........r
4 ..........
5 ..........
6 ......r...
7 ........h.
8 h.......f.

*** Darwin 1x15 ***
Turn = 0.
  012345678901234
0 .tf.f....r..fft

Turn = 6.
  012345678901234
0 .tt.f......rrrr

Turn = 12.
  012345678901234
0 .tt.f.rr....r.r

Turn = 18.
  012345678901234
0 .trr.rrrr......

*** Darwin 3x20 ***
Turn = 0.
  01234567890123456789
0 ...............f....
1 ....................
2 .r...........r..f...

Turn = 10.
  01234567890123456789
0 ..r............f....
1 ....................
2 ...r............f...

Turn = 20.
  01234567890123456789
0 ............r..f....
1 ....................
2 r...............f...

Turn = 30.
  01234567890123456789
0 ....................
1 ...................r
2 r.........r.....f...

Turn = 40.
  01234567890123456789
0 ...............r....
1 ....................
2 .rr.............f...

Turn = 50.
  01234567890123456789
0 r....r..............
1 ....................
2 ...r............f...

*** Darwin 100x100 ***
Turn = 0.
  0123456789012345678901234567890123456789012345678901234567890123456789012345678901234567890123456789
0 ...............f.........f..........................................................................
1 ....................................................................................................
2 .r...........r..f...r..r..f.........................................................................
3 ....................................................................................................
4 ....................................................................................................
5 ....................................................................................................
6 ....t...............................................................................................
7 ....................................................................................................
8 ....................................................................................................
9 ....................................................................................................
0 ....................................................................................................
1 ....................................................................................................
2 ....................................................................................................
3 ....................................................................................................
4 ....................................................................................................
5 ....................................................................................................
6 ....................................................................................................
7 ....................................................................................................
8 ....................................................................................................
9 ....................................................................................................
0 ....................................................................................................
1 ....................................................................................................
2 ....................................................................................................
3 ....................................................................................................
4 ....................................................................................................
5 ....................................................................................................
6 ....................................................................................................
7 ....................................................................................................
8 ....................................................................................................
9 ....................................................................................................
0 ....................................................................................................
1 ....................................................................................................
2 ....................................................................................................
3 ....................................................................................................
4 ....................................................................................................
5 ....................................................................................................
6 ....................................................................................................
7 ....................................................................................................
8 ....................................................................................................
9 ....................................................................................................
0 ....................................................................................................
1 ....................................................................................................
2 ....................................................................................................
3 .h..................................................................................................
4 ....................................................................................................
5 ....................................................................................................
6 ....................................................................................................
7 ....................................................................................................
8 ....................................................................................................
9 ....................................................................................................
0 ....................................................................................................
1 ....................................................................................................
2 ....................................................................................................
3 ....................................................................................................
4 ....................................................................................................
5 ....................................................................................................
6 ......................................................t.............................................
7 ....................................................................................................
8 ....................................................................................................
9 ....................................................................................................
0 ....................................................................................................
1 ....................................................................................................
2 ....................................................................................................
3 ....................................................................................................
4 ....................................................................................................
5 ....................................................................................................
6 ....................................................................................................
7 ....................................................................................................
8 ....................................................................................................
9 ....................................................................................................
0 ....................................................................................................
1 ....................................................................................................
2 ....................................................................................................
3 ....................................................................................................
4 ....................................................................................................
5 ....................................................................................................
6 ....................................................................................................
7 ....................................................................................................
8 ....................................................................................................
9 ....................................................................................................
0 ....................................................................................................
1 ....................................................................................................
2 ....................................................................................................
3 ....................................................................................................
4 ....................................................................................................
5 ....................................................................................................
6 ....................................................................................................
7 ....................................................................................................
8 ....................................................................................................
9 ....................................................................................................
0 ....................................................................................................
1 ....................................................................................................
2 ....................................................................................................
3 ....................................................................................................
4 ....................................................................................................
5 ....................................................................................................
6 ....................................................................................................
7 ....................................................................................................
8 ....................................................................................................
9 ....................................................................................................

Turn = 20.
  0123456789012345678901234567890123456789012345678901234567890123456789012345678901234567890123456789
0 .r.............f.........f..........................................................................
1 ....................................................................................................
2 ...rr.....................f.........................................................................
3 ....................................................................................................
4 ....................................................................................................
5 ....................................................................................................
6 ....t...............................................................................................
7 ....................................................................................................
8 ....................................................................................................
9 ....................................................................................................
0 ....................................................................................................
1 ....................................................................................................
2 ....................................................................................................
3 ....................................................................................................
4 ....................................................................................................
5 ....................................................................................................
6 ....................................................................................................
7 ....................................................................................................
8 ....................................................................................................
9 ....................................................................................................
0 ....................................................................................................
1 ....................................................................................................
2 .r..................r...............................................................................
3 ....................................................................................................
4 ....................................................................................................
5 ....................................................................................................
6 ....................................................................................................
7 ....................................................................................................
8 ....................................................................................................
9 ....................................................................................................
0 ....................................................................................................
1 ....................................................................................................
2 ....................................................................................................
3 ....................................................................................................
4 ....................................................................................................
5 ....................................................................................................
6 ....................................................................................................
7 ....................................................................................................
8 ....................................................................................................
9 ....................................................................................................
0 ....................................................................................................
1 ....................................................................................................
2 ....................................................................................................
3 .....................h..............................................................................
4 ....................................................................................................
5 ....................................................................................................
6 ....................................................................................................
7 ....................................................................................................
8 ....................................................................................................
9 ....................................................................................................
0 ....................................................................................................
1 ....................................................................................................
2 ....................................................................................................
3 ....................................................................................................
4 ....................................................................................................
5 ....................................................................................................
6 ......................................................t.............................................
7 ....................................................................................................
8 ....................................................................................................
9 ....................................................................................................
0 ....................................................................................................
1 ....................................................................................................
2 ....................................................................................................
3 ....................................................................................................
4 ....................................................................................................
5 ....................................................................................................
6 ....................................................................................................
7 ....................................................................................................
8 ....................................................................................................
9 ....................................................................................................
0 ....................................................................................................
1 ....................................................................................................
2 ....................................................................................................
3 ....................................................................................................
4 ....................................................................................................
5 ....................................................................................................
6 ....................................................................................................
7 ....................................................................................................
8 ....................................................................................................
9 ....................................................................................................
0 ....................................................................................................
1 ....................................................................................................
2 ....................................................................................................
3 ....................................................................................................
4 ....................................................................................................
5 ....................................................................................................
6 ....................................................................................................
7 ....................................................................................................
8 ....................................................................................................
9 ....................................................................................................
0 ....................................................................................................
1 ....................................................................................................
2 ....................................................................................................
3 ....................................................................................................
4 ....................................................................................................
5 ....................................................................................................
6 ....................................................................................................
7 ....................................................................................................
8 ....................................................................................................
9 ....................................................................................................

Turn = 40.
  0123456789012345678901234567890123456789012345678901234567890123456789012345678901234567890123456789
0 ...........r.............f..........................................................................
1 ............r.......................................................................................
2 ..........................f.........................................................................
3 ....................................................................................................
4 ....................................................................................................
5 ..............r.....................................................................................
6 ....t...............................................................................................
7 ....................................................................................................
8 ....................................................................................................
9 ....................................................................................................
0 r...................................................................................................
1 ....................................................................................................
2 ....................................................................................................
3 ....................................................................................................
4 ....................................................................................................
5 ....................................................................................................
6 ....................................................................................................
7 ....................................................................................................
8 ....................................................................................................
9 ....................................................................................................
0 ....................................................................................................
1 ....................................................................................................
2 ....................................................................................................
3 ....................................................................................................
4 ....................................................................................................
5 ....................................................................................................
6 ....................................................................................................
7 ....................................................................................................
8 ....................................................................................................
9 ....................................................................................................
0 ....................................................................................................
1 ....................................................................................................
2 ....................................................................................................
3 ....................................................................................................
4 ....................................................................................................
5 ....................................................................................................
6 ....................................................................................................
7 ....................................................................................................
8 ....................................................................................................
9 ....................................................................................................
0 ....................................................................................................
1 ....................................................................................................
2 .r..................r...............................................................................
3 .........................................h..........................................................
4 ....................................................................................................
5 ....................................................................................................
6 ....................................................................................................
7 ....................................................................................................
8 ....................................................................................................
9 ....................................................................................................
0 ....................................................................................................
1 ....................................................................................................
2 ....................................................................................................
3 ....................................................................................................
4 ....................................................................................................
5 ....................................................................................................
6 ......................................................t.............................................
7 ....................................................................................................
8 ....................................................................................................
9 ....................................................................................................
0 ....................................................................................................
1 ....................................................................................................
2 ....................................................................................................
3 ....................................................................................................
4 ....................................................................................................
5 ....................................................................................................
6 ....................................................................................................
7 ....................................................................................................
8 ....................................................................................................
9 ....................................................................................................
0 ....................................................................................................
1 ....................................................................................................
2 ....................................................................................................
3 ....................................................................................................
4 ....................................................................................................
5 ....................................................................................................
6 ....................................................................................................
7 ....................................................................................................
8 ....................................................................................................
9 ....................................................................................................
0 ....................................................................................................
1 ....................................................................................................
2 ....................................................................................................
3 ....................................................................................................
4 ....................................................................................................
5 ....................................................................................................
6 ....................................................................................................
7 ....................................................................................................
8 ....................................................................................................
9 ....................................................................................................
0 ....................................................................................................
1 ....................................................................................................
2 ....................................................................................................
3 ....................................................................................................
4 ....................................................................................................
5 ....................................................................................................
6 ....................................................................................................
7 ....................................................................................................
8 ....................................................................................................
9 ....................................................................................................

Turn = 60.
  0123456789012345678901234567890123456789012345678901234567890123456789012345678901234567890123456789
0 .........................f..........................................................................
1 ....................................................................................................
2 ..........................f.........................................................................
3 ....................................................................................................
4 ....................................................................................................
5 ....................................................................................................
6 ....t...............................................................................................
7 r...................................................................................................
8 ....................................................................................................
9 ....................................................................................................
0 ....................................................................................................
1 ....................................................................................................
2 ....................................................................................................
3 ....................................................................................................
4 ....................................................................................................
5 ....................................................................................................
6 ....................................................................................................
7 ....................................................................................................
8 ....................................................................................................
9 ....................................................................................................
0 ....................................................................................................
1 ............r.......................................................................................
2 ....................................................................................................
3 ....................................................................................................
4 ....................................................................................................
5 ..............r.....................................................................................
6 ....................................................................................................
7 ....................................................................................................
8 ....................................................................................................
9 ....................................................................................................
0 r...................................................................................................
1 ....................................................................................................
2 ....................................................................................................
3 ....................................................................................................
4 ....................................................................................................
5 ....................................................................................................
6 ....................................................................................................
7 ....................................................................................................
8 ....................................................................................................
9 ....................................................................................................
0 ....................................................................................................
1 ....................................................................................................
2 ....................................................................................................
3 .............................................................h......................................
4 ....................................................................................................
5 ....................................................................................................
6 ....................................................................................................
7 ....................................................................................................
8 ....................................................................................................
9 ....................................................................................................
0 ....................................................................................................
1 ....................................................................................................
2 ....................................................................................................
3 ....................................................................................................
4 ....................................................................................................
5 ....................................................................................................
6 ......................................................t.............................................
7 ....................................................................................................
8 ....................................................................................................
9 ....................................................................................................
0 ....................................................................................................
1 ....................................................................................................
2 .r..................r...............................................................................
3 ....................................................................................................
4 ....................................................................................................
5 ....................................................................................................
6 ....................................................................................................
7 ....................................................................................................
8 ....................................................................................................
9 ....................................................................................................
0 ....................................................................................................
1 ....................................................................................................
2 ....................................................................................................
3 ....................................................................................................
4 ....................................................................................................
5 ....................................................................................................
6 ....................................................................................................
7 ....................................................................................................
8 ....................................................................................................
9 ....................................................................................................
0 ....................................................................................................
1 ....................................................................................................
2 ....................................................................................................
3 ....................................................................................................
4 ....................................................................................................
5 ....................................................................................................
6 ....................................................................................................
7 ....................................................................................................
8 ....................................................................................................
9 ....................................................................................................
0 ....................................................................................................
1 ....................................................................................................
2 ....................................................................................................
3 ....................................................................................................
4 ....................................................................................................
5 ....................................................................................................
6 ....................................................................................................
7 ....................................................................................................
8 ....................................................................................................
9 ....................................................................................................

Turn = 80.
  0123456789012345678901234567890123456789012345678901234567890123456789012345678901234567890123456789
0 .........................f..........................................................................
1 ....................................................................................................
2 ..........................f.........................................................................
3 ....................................................................................................
4 ....................................................................................................
5 ....................................................................................................
6 ....t...............................................................................................
7 ....................................................................................................
8 ....................................................................................................
9 ....................................................................................................
0 ....................................................................................................
1 ....................................................................................................
2 ....................................................................................................
3 ....................................................................................................
4 ....................................................................................................
5 ....................................................................................................
6 ....................................................................................................
7 ....................................................................................................
8 ....................................................................................................
9 ....................................................................................................
0 ....................................................................................................
1 ....................................................................................................
2 ....................................................................................................
3 ....................................................................................................
4 ....................................................................................................
5 ....................................................................................................
6 ....................................................................................................
7 r...................................................................................................
8 ....................................................................................................
9 ....................................................................................................
0 ....................................................................................................
1 ....................................................................................................
2 ....................................................................................................
3 ....................................................................................................
4 ....................................................................................................
5 ....................................................................................................
6 ....................................................................................................
7 ....................................................................................................
8 ....................................................................................................
9 ....................................................................................................
0 ....................................................................................................
1 ............r.......................................................................................
2 ....................................................................................................
3 .................................................................................h..................
4 ....................................................................................................
5 ..............r.....................................................................................
6 ....................................................................................................
7 ....................................................................................................
8 ....................................................................................................
9 ....................................................................................................
0 r...................................................................................................
1 ....................................................................................................
2 ....................................................................................................
3 ....................................................................................................
4 ....................................................................................................
5 ....................................................................................................
6 ......................................................t.............................................
7 ....................................................................................................
8 ....................................................................................................
9 ....................................................................................................
0 ....................................................................................................
1 ....................................................................................................
2 ....................................................................................................
3 ....................................................................................................
4 ....................................................................................................
5 ....................................................................................................
6 ....................................................................................................
7 ....................................................................................................
8 ....................................................................................................
9 ....................................................................................................
0 ....................................................................................................
1 ....................................................................................................
2 ....................................................................................................
3 ....................................................................................................
4 ....................................................................................................
5 ....................................................................................................
6 ....................................................................................................
7 ....................................................................................................
8 ....................................................................................................
9 ....................................................................................................
0 ....................................................................................................
1 ....................................................................................................
2 .r..................r...............................................................................
3 ....................................................................................................
4 ....................................................................................................
5 ....................................................................................................
6 ....................................................................................................
7 ....................................................................................................
8 ....................................................................................................
9 ....................................................................................................
0 ....................................................................................................
1 ....................................................................................................
2 ....................................................................................................
3 ....................................................................................................
4 ....................................................................................................
5 ....................................................................................................
6 ....................................................................................................
7 ....................................................................................................
8 ....................................................................................................
9 ....................................................................................................

Turn = 100.
  0123456789012345678901234567890123456789012345678901234567890123456789012345678901234567890123456789
0 .........................f..........................................................................
1 ....................................................................................................
2 ..........................f.........................................................................
3 ....................................................................................................
4 ....................................................................................................
5 ....................................................................................................
6 ....t...............................................................................................
7 ....................................................................................................
8 ....................................................................................................
9 ....................................................................................................
0 ....................................................................................................
1 ....................................................................................................
2 ....................................................................................................
3 ....................................................................................................
4 ....................................................................................................
5 ....................................................................................................
6 ....................................................................................................
7 ....................................................................................................
8 ....................................................................................................
9 ....................................................................................................
0 ....................................................................................................
1 ....................................................................................................
2 ....................................................................................................
3 ....................................................................................................
4 ....................................................................................................
5 ....................................................................................................
6 ....................................................................................................
7 ....................................................................................................
8 ....................................................................................................
9 ....................................................................................................
0 ....................................................................................................
1 ....................................................................................................
2 ....................................................................................................
3 ....................................................................................................
4 ....................................................................................................
5 ....................................................................................................
6 ....................................................................................................
7 ....................................................................................................
8 ....................................................................................................
9 ....................................................................................................
0 ....................................................................................................
1 ....................................................................................................
2 ....................................................................................................
3 ...................................................................................................h
4 ....................................................................................................
5 ....................................................................................................
6 ....................................................................................................
7 r...................................................................................................
8 ....................................................................................................
9 ....................................................................................................
0 ....................................................................................................
1 ....................................................................................................
2 ....................................................................................................
3 ....................................................................................................
4 ....................................................................................................
5 ....................................................................................................
6 ......................................................t.............................................
7 ....................................................................................................
8 ....................................................................................................
9 ....................................................................................................
0 ....................................................................................................
1 ............r.......................................................................................
2 ....................................................................................................
3 ....................................................................................................
4 ....................................................................................................
5 ..............r.....................................................................................
6 ....................................................................................................
7 ....................................................................................................
8 ....................................................................................................
9 ....................................................................................................
0 r...................................................................................................
1 ....................................................................................................
2 ....................................................................................................
3 ....................................................................................................
4 ....................................................................................................
5 ....................................................................................................
6 ....................................................................................................
7 ....................................................................................................
8 ....................................................................................................
9 ....................................................................................................
0 ....................................................................................................
1 ....................................................................................................
2 ....................................................................................................
3 ....................................................................................................
4 ....................................................................................................
5 ....................................................................................................
6 ....................................................................................................
7 ....................................................................................................
8 ....................................................................................................
9 ....................................................................................................
0 ....................................................................................................
1 ....................................................................................................
2 ....................................................................................................
3 ....................................................................................................
4 ....................................................................................................
5 ....................................................................................................
6 ....................................................................................................
7 ....................................................................................................
8 ....................................................................................................
9 r.....................r.............................................................................
