*** Darwin 1x1 ***
Turn = 0.
  0
0 h

Turn = 1.
  0
0 h

*** Darwin 4x11 ***
Turn = 0.
  01234567890
0 .......t...
1 ...........
2 ...t.......
3 ...........

Turn = 1.
  01234567890
0 .......t...
1 ...........
2 ...t.......
3 ...........

Turn = 2.
  01234567890
0 .......t...
1 ...........
2 ...t.......
3 ...........

*** Darwin 11x13 ***
Turn = 0.
  0123456789012
0 ..t........f.
1 .............
2 ..........r..
3 .h...........
4 .......r.....
5 ....f........
6 .............
7 .....t.......
8 .............
9 ...t...r.....
0 .............

Turn = 1.
  0123456789012
0 ..t........f.
1 ..........r..
2 .............
3 ..h..........
4 .............
5 ....f..r.....
6 .............
7 .....t.......
8 .............
9 ...t.........
0 .......r.....

Turn = 2.
  0123456789012
0 ..t.......rf.
1 .............
2 .............
3 ...h.........
4 .............
5 ....f........
6 .......r.....
7 .....t.......
8 .............
9 ...t.........
0 .......r.....

*** Darwin 14x2 ***
Turn = 0.
  01
0 ..
1 t.
2 ..
3 ..
4 ..
5 ..
6 ..
7 r.
8 ..
9 ..
0 ..
1 ..
2 h.
3 ..

Turn = 2.
  01
0 ..
1 t.
2 ..
3 ..
4 ..
5 r.
6 ..
7 ..
8 ..
9 ..
0 ..
1 ..
2 h.
3 ..

Turn = 4.
  01
0 ..
1 t.
2 ..
3 r.
4 ..
5 ..
6 ..
7 ..
8 ..
9 ..
0 ..
1 ..
2 h.
3 ..

*** Darwin 12x7 ***
Turn = 0.
  0123456
0 .h.....
1 .......
2 .......
3 .......
4 .......
5 .......
6 .......
7 r...r..
8 ..h....
9 .......
0 .......
1 .......

Turn = 1.
  0123456
0 .......
1 .h.....
2 .......
3 .......
4 .......
5 .......
6 .......
7 .r.....
8 ...hr..
9 .......
0 .......
1 .......

Turn = 2.
  0123456
0 .......
1 .......
2 .h.....
3 .......
4 .......
5 .......
6 .......
7 ..r....
8 ...h...
9 ....r..
0 .......
1 .......

Turn = 3.
  0123456
0 .......
1 .......
2 .......
3 .h.....
4 .......
5 .......
6 .......
7 ...r...
8 ....h..
9 .......
0 ....r..
1 .......

*** Darwin 4x10 ***
Turn = 0.
  0123456789
0 .rh..t....
1 ..........
2 .....f..r.
3 ..........

Turn = 1.
  0123456789
0 .r.r.t....
1 ........r.
2 .....f....
3 ..........

Turn = 2.
  0123456789
0 ..r.tt..r.
1 ..........
2 .....f....
3 ..........

Turn = 3.
  0123456789
0 ...rtt..r.
1 ..........
2 .....f....
3 ..........

Turn = 4.
  0123456789
0 ...rrt...r
1 ..........
2 .....f....
3 ..........

*** Darwin 18x15 ***
Turn = 0.
  012345678901234
0 .........f.....
1 .........t.....
2 ...............
3 ...............
4 ...............
5 ...............
6 ...............
7 ...............
8 f..............
9 ...............
0 ...............
1 ...............
2 ...............
3 ..........r....
4 ...............
5 ...............
6 ....h..........
7 ...............

Turn = 2.
  012345678901234
0 .........t.....
1 .........t.....
2 ...............
3 ...............
4 ...............
5 ...............
6 ...............
7 ...............
8 f..............
9 ...............
0 ...............
1 ...............
2 ...............
3 ...............
4 ...............
5 ..........r....
6 ..h............
7 ...............

Turn = 4.
  012345678901234
0 .........t.....
1 .........t.....
2 ...............
3 ...............
4 ...............
5 ...............
6 ...............
7 ...............
8 f..............
9 ...............
0 ...............
1 ...............
2 ...............
3 ...............
4 ...............
5 ...............
6 h..............
7 ..........r....

Turn = 6.
  012345678901234
0 .........t.....
1 .........t.....
2 ...............
3 ...............
4 ...............
5 ...............
6 ...............
7 ...............
8 f..............
9 ...............
0 ...............
1 ...............
2 ...............
3 ...............
4 ...............
5 ...............
6 h..............
7 .........r.....

*** Darwin 6x10 ***
Turn = 0.
  0123456789
0 ..........
1 .....t....
2 ....r.....
3 ..........
4 .....t....
5 ..........

Turn = 1.
  0123456789
0 ..........
1 .....t....
2 ...r......
3 ..........
4 .....t....
5 ..........

Turn = 2.
  0123456789
0 ..........
1 .....t....
2 ..r.......
3 ..........
4 .....t....
5 ..........

Turn = 3.
  0123456789
0 ..........
1 .....t....
2 .r........
3 ..........
4 .....t....
5 ..........

*** Darwin 15x6 ***
Turn = 0.
  012345
0 .f....
1 ....r.
2 r.....
3 ...t..
4 .f....
5 ......
6 ......
7 ......
8 .r....
9 ......
0 ......
1 ......
2 ......
3 ......
4 ......

Turn = 2.
  012345
0 .f....
1 ......
2 ..r...
3 ...tt.
4 .f....
5 ......
6 ......
7 ......
8 r.....
9 ......
0 ......
1 ......
2 ......
3 ......
4 ......

Turn = 4.
  012345
0 .f....
1 ......
2 ....r.
3 ...tt.
4 .f....
5 ......
6 r.....
7 ......
8 ......
9 ......
0 ......
1 ......
2 ......
3 ......
4 ......

*** Darwin 6x14 ***
Turn = 0.
  01234567890123
0 ..............
1 ..............
2 ...........f..
3 ..............
4 ..............
5 ..............

Turn = 1.
  01234567890123
0 ..............
1 ..............
2 ...........f..
3 ..............
4 ..............
5 ..............

*** Darwin 9x19 ***
Turn = 0.
  0123456789012345678
0 .rr................
1 ............f......
2 ..........h........
3 .........f.........
4 ...................
5 ..........r........
6 ..............f....
7 .........f...t.....
8 ...................

Turn = 3.
  0123456789012345678
0 ....r.....h........
1 ............f......
2 ...................
3 .r.......f.........
4 ...................
5 .......r...........
6 ..............f....
7 .........f...t.....
8 ...................

Turn = 6.
  0123456789012345678
0 .......r..h........
1 ............f......
2 ...................
3 .........f.........
4 ...................
5 ....r..............
6 .r............f....
7 .........f...t.....
8 ...................

*** Darwin 3x8 ***
Turn = 0.
  01234567
0 h.......
1 ....f...
2 ........

Turn = 4.
  01234567
0 ....h...
1 ....f...
2 ........

Turn = 8.
  01234567
0 .......h
1 ....f...
2 ........

*** Darwin 16x7 ***
Turn = 0.
  0123456
0 .......
1 .......
2 ...f...
3 .....r.
4 .r...f.
5 r......
6 .......
7 .......
8 .r.....
9 .......
0 .......
1 .......
2 .......
3 .......
4 .......
5 .......

Turn = 2.
  0123456
0 .......
1 .......
2 .r.f...
3 ...r...
4 r....f.
5 .......
6 .......
7 .......
8 ...r...
9 .......
0 .......
1 .......
2 .......
3 .......
4 .......
5 .......

Turn = 4.
  0123456
0 .r.....
1 .......
2 r..f...
3 .r.....
4 .....f.
5 .......
6 .......
7 .......
8 .....r.
9 .......
0 .......
1 .......
2 .......
3 .......
4 .......
5 .......

Turn = 6.
  0123456
0 r......
1 r......
2 ...f...
3 r......
4 .....f.
5 .......
6 .......
7 .......
8 ......r
9 .......
0 .......
1 .......
2 .......
3 .......
4 .......
5 .......

*** Darwin 11x10 ***
Turn = 0.
  0123456789
0 ......r...
1 ..........
2 r.........
3 ......ht..
4 .t........
5 ..........
6 ......t...
7 ..........
8 .......f..
9 ..........
0 ..........

Turn = 3.
  0123456789
0 r..r......
1 ..........
2 ..........
3 .......t..
4 .t........
5 ......t...
6 ......t...
7 ..........
8 .......f..
9 ..........
0 ..........

*** Darwin 9x9 ***
Turn = 0.
  012345678
0 ....htf..
1 tt..f....
2 ....r....
3 .........
4 .........
5 ......t..
6 .........
7 .........
8 .........

Turn = 3.
  012345678
0 ....ttf..
1 tt..f....
2 .......r.
3 .........
4 .........
5 ......t..
6 .........
7 .........
8 .........

Turn = 6.
  012345678
0 ....ttt..
1 tt..t....
2 .........
3 ........r
4 .........
5 ......t..
6 .........
7 .........
8 .........

*** Darwin 14x19 ***
Turn = 0.
  0123456789012345678
0 ...................
1 ....r..............
2 .h.................
3 ...........t.......
4 ...................
5 ...................
6 ...................
7 .f.................
8 ...................
9 ...h.............r.
0 .................t.
1 .................h.
2 ...................
3 ...................

Turn = 2.
  0123456789012345678
0 ....r..............
1 ...................
2 ...h...............
3 ...........t.......
4 ...................
5 ...................
6 ...................
7 .f...............r.
8 ...................
9 .....h.............
0 .................t.
1 ..................h
2 ...................
3 ...................

Turn = 4.
  0123456789012345678
0 ......r............
1 ...................
2 .....h.............
3 ...........t.......
4 ...................
5 .................r.
6 ...................
7 .f.................
8 ...................
9 .......h...........
0 .................t.
1 ..................h
2 ...................
3 ...................

Turn = 6.
  0123456789012345678
0 ........r..........
1 ...................
2 .......h...........
3 ...........t.....r.
4 ...................
5 ...................
6 ...................
7 .f.................
8 ...................
9 .........h.........
0 .................t.
1 ..................h
2 ...................
3 ...................

*** Darwin 12x5 ***
Turn = 0.
  01234
0 .....
1 .t...
2 ..f..
3 .....
4 .....
5 .....
6 .....
7 .....
8 .....
9 r....
0 ...f.
1 .....

Turn = 5.
  01234
0 .....
1 .t...
2 ..f..
3 .....
4 .....
5 r....
6 .....
7 .....
8 .....
9 .....
0 ...f.
1 .....

Turn = 10.
  01234
0 r....
1 .t...
2 ..f..
3 .....
4 .....
5 .....
6 .....
7 .....
8 .....
9 .....
0 ...f.
1 .....

*** Darwin 10x3 ***
Turn = 0.
  012
0 ...
1 ...
2 .h.
3 ...
4 ...
5 ...
6 ...
7 ...
8 ...
9 ...

Turn = 9.
  012
0 ...
1 ...
2 h..
3 ...
4 ...
5 ...
6 ...
7 ...
8 ...
9 ...

*** Darwin 10x8 ***
Turn = 0.
  01234567
0 ........
1 ........
2 ........
3 ..f.....
4 ........
5 ........
6 ........
7 ........
8 ........
9 ........

Turn = 1.
  01234567
0 ........
1 ........
2 ........
3 ..f.....
4 ........
5 ........
6 ........
7 ........
8 ........
9 ........

*** Darwin 16x19 ***
Turn = 0.
  0123456789012345678
0 ..h................
1 ...................
2 ...................
3 ...................
4 ...................
5 ...f...............
6 ...................
7 .........t.........
8 ..............r....
9 .h.fh..............
0 ..........rr.......
1 ..........f..h.....
2 ...................
3 .h.............t...
4 ...............h...
5 ...................

Turn = 2.
  0123456789012345678
0 h..................
1 ...................
2 ...................
3 ...................
4 ...................
5 ...f...............
6 ...................
7 .........t.........
8 ..........r........
9 h..f.........h.....
0 ..............r....
1 ....h.....f........
2 ...........r.......
3 h..............t...
4 ...................
5 ...............h...

Turn = 4.
  0123456789012345678
0 h..................
1 ...................
2 ...................
3 ...................
4 ...................
5 ...f...............
6 ..........r........
7 .........t...h.....
8 ...................
9 h..f...............
0 ...................
1 ..........f........
2 ..............r....
3 h...h..........t...
4 ...........r.......
5 ...............h...

Turn = 6.
  0123456789012345678
0 h..................
1 ...................
2 ...................
3 ...................
4 ..........r........
5 ...f.........h.....
6 ...................
7 .........t.........
8 ...................
9 h..f...............
0 ...................
1 ..........f........
2 ...................
3 h..............t...
4 ..............r....
5 ....h......r...h...

Turn = 8.
  0123456789012345678
0 h..................
1 ...................
2 ..........r........
3 .............h.....
4 ...................
5 ...f...............
6 ...................
7 .........t.........
8 ...................
9 h..f...............
0 ...................
1 ..........f........
2 ...................
3 h..............t...
4 ...................
5 ....h....r....rh...

*** Darwin 13x3 ***
Turn = 0.
  012
0 ...
1 ...
2 ...
3 ...
4 ...
5 ...
6 .h.
7 ...
8 ...
9 ...
0 ...
1 ...
2 ...

Turn = 1.
  012
0 ...
1 ...
2 ...
3 ...
4 ...
5 ...
6 h..
7 ...
8 ...
9 ...
0 ...
1 ...
2 ...

Turn = 2.
  012
0 ...
1 ...
2 ...
3 ...
4 ...
5 ...
6 h..
7 ...
8 ...
9 ...
0 ...
1 ...
2 ...

Turn = 3.
  012
0 ...
1 ...
2 ...
3 ...
4 ...
5 ...
6 h..
7 ...
8 ...
9 ...
0 ...
1 ...
2 ...

Turn = 4.
  012
0 ...
1 ...
2 ...
3 ...
4 ...
5 ...
6 h..
7 ...
8 ...
9 ...
0 ...
1 ...
2 ...

Turn = 5.
  012
0 ...
1 ...
2 ...
3 ...
4 ...
5 ...
6 h..
7 ...
8 ...
9 ...
0 ...
1 ...
2 ...

*** Darwin 10x10 ***
Turn = 0.
  0123456789
0 ..f.......
1 .r....t...
2 ..........
3 .h........
4 ..........
5 ..........
6 ..........
7 ..h.......
8 ..........
9 ..........

Turn = 1.
  0123456789
0 ..f.......
1 r.....t...
2 ..........
3 h.........
4 ..........
5 ..........
6 ..........
7 ...h......
8 ..........
9 ..........

Turn = 2.
  0123456789
0 ..f.......
1 r.....t...
2 ..........
3 h.........
4 ..........
5 ..........
6 ..........
7 ....h.....
8 ..........
9 ..........

Turn = 3.
  0123456789
0 r.f.......
1 ......t...
2 ..........
3 h.........
4 ..........
5 ..........
6 ..........
7 .....h....
8 ..........
9 ..........

Turn = 4.
  0123456789
0 r.f.......
1 ......t...
2 ..........
3 h.........
4 ..........
5 ..........
6 ..........
7 ......h...
8 ..........
9 ..........

Turn = 5.
  0123456789
0 r.f.......
1 ......t...
2 ..........
3 h.........
4 ..........
5 ..........
6 ..........
7 .......h..
8 ..........
9 ..........

*** Darwin 8x8 ***
Turn = 0.
  01234567
0 f.......
1 ........
2 ..h.....
3 ..t.....
4 ........
5 ......r.
6 ........
7 ........

Turn = 2.
  01234567
0 f.h.....
1 ........
2 ........
3 ..t...r.
4 ........
5 ........
6 ........
7 ........
