20

175 116
34
r 169 49 s
h 20 45 s
t 35 30 s
r 49 0 s
t 135 50 w
r 147 38 s
r 106 74 e
f 28 47 n
r 13 100 e
r 134 79 w
t 117 2 n
t 61 94 s
f 84 100 e
f 144 56 w
f 60 94 w
t 152 109 n
t 4 106 w
t 165 109 n
t 17 40 w
f 110 85 e
r 1 4 w
r 168 4 e
r 160 74 s
f 87 26 e
h 135 29 n
f 136 100 s
h 74 6 w
r 3 62 e
t 150 85 w
f 164 63 w
r 102 21 s
h 161 72 n
t 88 96 w
f 51 52 w
100 5

12 12
3
f 0 0 s
h 0 3 w
r 3 3 s
5 3

189 160
8
t 85 46 w
f 35 71 n
f 89 100 s
h 83 129 n
f 56 88 w
f 155 75 s
h 176 6 e
h 151 142 e
54 7

10 7
4
f 0 3 n
r 0 4 w
r 4 4 s
t 8 2 s
12 3

37 16
16
f 18 2 s
t 17 15 w
f 7 2 w
r 14 9 n
f 2 4 w
t 1 4 s
r 16 14 s
f 26 15 s
h 9 5 e
r 11 5 e
r 17 4 n
f 30 10 w
t 18 8 n
t 6 1 e
f 20 1 e
h 15 14 n
214 50

13 31
4
f 2 2 n
r 4 4 e
r 1 22 w
h 0 0 w
14 4

81 138
24
r 58 80 s
t 65 135 s
f 18 76 s
f 9 5 n
h 43 43 e
t 31 86 w
f 7 30 n
t 67 100 n
r 70 9 s
h 42 76 w
h 28 3 e
r 34 16 n
f 50 3 n
t 30 132 w
f 76 89 w
t 49 25 e
h 68 112 n
h 42 27 e
f 24 122 e
t 63 22 s
r 30 42 n
t 30 46 e
h 71 134 e
t 48 51 w
589 199

79 194
14
t 66 142 w
f 24 0 e
f 55 46 n
f 12 114 w
r 67 163 w
r 0 8 s
f 32 113 s
h 76 15 e
h 47 120 n
t 27 170 e
t 22 161 n
f 5 108 n
f 1 111 w
t 32 14 n
567 189

30 30
3
f 0 8 n
r 3 3 w
t 7 7 e
33 10

34 12
5
r 0 0 s
r 8 8 s
t 9 2 n
f 0 8 w
h 9 9 w
12 3

153 98
31
h 112 17 e
h 105 57 e
h 70 53 e
f 112 2 e
r 113 0 s
f 57 6 w
r 69 63 n
t 65 32 e
r 40 45 w
t 118 39 n
h 68 19 w
h 84 69 s
t 101 5 s
t 130 46 n
r 92 12 s
h 12 84 w
h 96 16 s
f 113 71 w
f 4 10 e
r 108 61 w
t 87 17 w
h 136 67 n
t 72 29 e
r 73 4 e
r 49 61 n
r 87 32 e
f 15 94 e
h 50 9 e
f 123 52 n
h 70 79 w
h 32 29 e
418 99

39 90
4
f 0 3 w
r 9 9 e
t 10 12 e
h 11 5 w
13 2

56 33
3
f 3 12 w
r 8 12 e
r 0 0 w
15 5

50 23
3
h 0 0 e
h 0 3 n
f 9 9 s
12 3

118 89
17
h 35 27 n
h 87 74 e
r 77 34 n
f 20 58 w
r 11 63 w
h 38 46 w
t 92 86 e
r 24 42 n
f 56 48 s
t 26 1 w
f 1 18 w
t 89 58 s
t 59 51 s
f 2 15 e
h 32 37 s
t 89 87 n
h 12 60 e
424 108

67 157
26
t 27 8 n
t 11 63 e
h 41 151 w
r 34 86 w
r 2 132 n
r 32 41 n
h 45 98 e
f 66 38 w
h 63 150 e
r 42 56 e
h 0 63 s
t 32 14 s
h 35 40 e
f 16 1 s
f 22 53 w
h 56 44 n
f 53 107 w
r 47 67 n
f 47 104 e
r 1 141 s
f 37 140 n
h 33 150 n
r 50 99 e
t 31 55 w
t 37 123 w
r 9 22 e
467 193

10 10
3
h 0 0 s
r 0 2 n
f 4 4 e
5 1

12 10
5
h 0 4 w
r 4 2 e
f 8 1 w
f 1 1 s
t 3 3 n
10 2

23 32
4
f 0 0 e
r 12 3 n
t 6 2 s
f 4 4 w
12 3

12 23
2
r 0 0 s
t 9 9 e
12 4
