*** Darwin 20x15 ***
Turn = 0.
  012345678901234
0 ...............
1 ...........t...
2 ...............
3 ...............
4 ...............
5 ...............
6 .........h.....
7 ...............
8 ........h......
9 ...............
0 .............r.
1 ...............
2 ...............
3 ...............
4 ...............
5 ...............
6 ...............
7 ...............
8 ...............
9 ....r.....t....

Turn = 12.
  012345678901234
0 ...............
1 ...........t...
2 ...............
3 ...............
4 ...............
5 ...............
6 ...............
7 ...............
8 ..............h
9 ...............
0 .r.............
1 ...............
2 ...............
3 ..........r....
4 ...............
5 .........r.....
6 .........r.....
7 ...............
8 ...............
9 ...............

Turn = 24.
  012345678901234
0 r..............
1 ..........rt...
2 ...............
3 ...............
4 ...............
5 ...............
6 ...............
7 ...............
8 ..............h
9 ...............
0 ...............
1 ...............
2 ...............
3 ...............
4 ...............
5 ...............
6 ...............
7 r..............
8 ...............
9 ..............r

*** Darwin 19x19 ***
Turn = 0.
  0123456789012345678
0 ...................
1 ..f................
2 ..t....r...........
3 ...................
4 ...................
5 ...................
6 .....h.............
7 ...................
8 .h.................
9 ...................
0 ...................
1 ...................
2 ...................
3 ...................
4 ....t..............
5 ...................
6 ...................
7 ...f...............
8 ...................

Turn = 1.
  0123456789012345678
0 ...................
1 ..t................
2 ..t...r............
3 ...................
4 ...................
5 ...................
6 ....h..............
7 ...................
8 h..................
9 ...................
0 ...................
1 ...................
2 ...................
3 ...................
4 ....t..............
5 ...................
6 ...................
7 ...f...............
8 ...................

Turn = 2.
  0123456789012345678
0 ...................
1 ..t................
2 ..t..r.............
3 ...................
4 ...................
5 ...................
6 ...h...............
7 ...................
8 h..................
9 ...................
0 ...................
1 ...................
2 ...................
3 ...................
4 ....t..............
5 ...................
6 ...................
7 ...f...............
8 ...................

Turn = 3.
  0123456789012345678
0 ...................
1 ..t................
2 ..t.r..............
3 ...................
4 ...................
5 ...................
6 ..h................
7 ...................
8 h..................
9 ...................
0 ...................
1 ...................
2 ...................
3 ...................
4 ....t..............
5 ...................
6 ...................
7 ...f...............
8 ...................

Turn = 4.
  0123456789012345678
0 ...................
1 ..t................
2 ..tr...............
3 ...................
4 ...................
5 ...................
6 .h.................
7 ...................
8 h..................
9 ...................
0 ...................
1 ...................
2 ...................
3 ...................
4 ....t..............
5 ...................
6 ...................
7 ...f...............
8 ...................

Turn = 5.
  0123456789012345678
0 ...................
1 ..t................
2 ..tt...............
3 ...................
4 ...................
5 ...................
6 h..................
7 ...................
8 h..................
9 ...................
0 ...................
1 ...................
2 ...................
3 ...................
4 ....t..............
5 ...................
6 ...................
7 ...f...............
8 ...................

Turn = 6.
  0123456789012345678
0 ...................
1 ..t................
2 ..tt...............
3 ...................
4 ...................
5 ...................
6 h..................
7 ...................
8 h..................
9 ...................
0 ...................
1 ...................
2 ...................
3 ...................
4 ....t..............
5 ...................
6 ...................
7 ...f...............
8 ...................

*** Darwin 14x15 ***
Turn = 0.
  012345678901234
0 ...............
1 ...............
2 ...............
3 t..............
4 .f.............
5 ...............
6 ...............
7 ...............
8 ...............
9 ...............
0 ...............
1 ...............
2 ............h..
3 ...............

*** Darwin 7x5 ***
Turn = 0.
  01234
0 f....
1 ....h
2 .....
3 .....
4 ...t.
5 .r...
6 ...t.

*** Darwin 29x20 ***
Turn = 0.
  01234567890123456789
0 ....................
1 ....................
2 ....................
3 ....................
4 ....................
5 .................t..
6 ...........t........
7 ....................
8 ....................
9 ....................
0 ....................
1 ....................
2 ....................
3 ..........f.........
4 ....................
5 ....................
6 ....f...............
7 ....................
8 ...t................
9 ....................
0 ....................
1 ....................
2 ....................
3 ....................
4 ....................
5 ....................
6 ....................
7 ....................
8 ....................

*** Darwin 13x16 ***
Turn = 0.
  0123456789012345
0 ................
1 ................
2 ................
3 ........h.......
4 ....h...........
5 f.......t..f...r
6 ................
7 ................
8 ...........t....
9 ................
0 ..............h.
1 .r.........f....
2 ................

Turn = 12.
  0123456789012345
0 ........h.......
1 ................
2 ................
3 ................
4 ................
5 f.......t..f...r
6 r...............
7 ................
8 ...........t....
9 ................
0 ................
1 ...........f....
2 ....h.........h.

Turn = 24.
  0123456789012345
0 ........h.......
1 r...............
2 ................
3 ................
4 ................
5 .......tt..f....
6 ................
7 ................
8 ...........t....
9 ................
0 ................
1 ...........f....
2 ....h.........rr

Turn = 36.
  0123456789012345
0 ........h......r
1 ................
2 ................
3 ................
4 ................
5 .......tt..f....
6 ................
7 ................
8 ...........t....
9 ................
0 ................
1 ...........f....
2 r...rr..........

*** Darwin 22x3 ***
Turn = 0.
  012
0 ...
1 ...
2 ...
3 ...
4 ...
5 ...
6 ...
7 ...
8 ..h
9 ...
0 ...
1 ...
2 ...
3 ...
4 ...
5 ...
6 ...
7 .f.
8 ...
9 f..
0 ...
1 ..h

Turn = 6.
  012
0 ...
1 ...
2 ..h
3 ...
4 ...
5 ...
6 ...
7 ...
8 ...
9 ...
0 ...
1 ...
2 ...
3 ...
4 ...
5 ...
6 ...
7 .f.
8 ...
9 f..
0 ...
1 ..h

Turn = 12.
  012
0 ..h
1 ...
2 ...
3 ...
4 ...
5 ...
6 ...
7 ...
8 ...
9 ...
0 ...
1 ...
2 ...
3 ...
4 ...
5 ...
6 ...
7 .f.
8 ...
9 f..
0 ...
1 ..h

Turn = 18.
  012
0 ..h
1 ...
2 ...
3 ...
4 ...
5 ...
6 ...
7 ...
8 ...
9 ...
0 ...
1 ...
2 ...
3 ...
4 ...
5 ...
6 ...
7 .f.
8 ...
9 f..
0 ...
1 ..h

*** Darwin 13x30 ***
Turn = 0.
  012345678901234567890123456789
0 ..............................
1 .............r......f.....f...
2 ..............................
3 ..............................
4 ..............................
5 ..............................
6 ..............................
7 ..............................
8 ..............................
9 ..............................
0 t..........................r..
1 ..............................
2 .........................r....

Turn = 13.
  012345678901234567890123456789
0 ........................r.....
1 ....................f.....f...
2 ..............................
3 ..............................
4 ..............................
5 ..............................
6 ..............................
7 ..............................
8 ..............................
9 ..............................
0 t.............r...............
1 ..............................
2 ............r.................

Turn = 26.
  012345678901234567890123456789
0 ..............................
1 ....................f.....f...
2 ..............................
3 ..............................
4 ..............................
5 .............................r
6 ..............................
7 ..............................
8 ..............................
9 ..............................
0 tr............................
1 ..............................
2 r.............................

Turn = 39.
  012345678901234567890123456789
0 r.............................
1 r...................f.....f...
2 ..............................
3 ..............................
4 ..............................
5 ..............................
6 ..............................
7 ..............................
8 ..............................
9 ..............................
0 .t............................
1 ..............................
2 ........................r.....

*** Darwin 10x8 ***
Turn = 0.
  01234567
0 ........
1 ........
2 ......t.
3 ........
4 ........
5 ........
6 ........
7 ........
8 ........
9 ........

Turn = 9.
  01234567
0 ........
1 ........
2 ......t.
3 ........
4 ........
5 ........
6 ........
7 ........
8 ........
9 ........

Turn = 18.
  01234567
0 ........
1 ........
2 ......t.
3 ........
4 ........
5 ........
6 ........
7 ........
8 ........
9 ........

*** Darwin 20x20 ***
Turn = 0.
  01234567890123456789
0 ....................
1 ....................
2 ....................
3 .r.................t
4 ....................
5 ....................
6 ....................
7 ....................
8 ...f................
9 ..........h........r
0 ....................
1 ....................
2 ....................
3 ....................
4 ....................
5 ..t.................
6 ....................
7 ....................
8 ...................t
9 ....................

Turn = 12.
  01234567890123456789
0 ..........h.........
1 ....................
2 ....................
3 .............r.....t
4 ....................
5 ....................
6 ....................
7 ....................
8 ...f................
9 ....................
0 ....................
1 ....................
2 ....................
3 ....................
4 ....................
5 ..t.................
6 ....................
7 ....................
8 ...................r
9 ..................r.

*** Darwin 9x19 ***
Turn = 0.
  0123456789012345678
0 ...................
1 .h......r.......f..
2 ...................
3 ......r............
4 ...................
5 ...................
6 ...................
7 .f.................
8 ....f.h............

Turn = 11.
  0123456789012345678
0 .r.................
1 r...............f..
2 ..r................
3 ...................
4 ...................
5 ...................
6 ...................
7 .f.................
8 ....fh.............

*** Darwin 30x5 ***
Turn = 0.
  01234
0 .....
1 .r...
2 .....
3 .....
4 .....
5 .....
6 ...h.
7 .....
8 .....
9 ..t..
0 .....
1 .....
2 .....
3 .....
4 .....
5 ...f.
6 .....
7 .....
8 .....
9 .....
0 .....
1 .....
2 .fh..
3 ....f
4 .....
5 .....
6 .....
7 ..t..
8 .....
9 .....

Turn = 16.
  01234
0 ...h.
1 .....
2 .....
3 .....
4 .....
5 .....
6 .....
7 .....
8 .....
9 ..t..
0 .....
1 .....
2 .....
3 ....r
4 .....
5 ...f.
6 .....
7 .....
8 .....
9 .....
0 .....
1 .....
2 .f..h
3 ....f
4 .....
5 .....
6 .....
7 ..t..
8 .....
9 .....

Turn = 32.
  01234
0 ...h.
1 .....
2 .....
3 .....
4 .....
5 .....
6 .....
7 .....
8 .....
9 ..t..
0 .....
1 .....
2 .....
3 .....
4 .....
5 ...f.
6 .....
7 .....
8 .....
9 .....
0 r....
1 .....
2 .f...
3 .....
4 .....
5 .....
6 ....r
7 ..t..
8 ....r
9 .....

*** Darwin 30x5 ***
Turn = 0.
  01234
0 .....
1 .r...
2 .....
3 .....
4 .....
5 .....
6 ...h.
7 .....
8 .....
9 ..t..
0 .....
1 .....
2 .....
3 .....
4 .....
5 ...f.
6 .....
7 .....
8 .....
9 .....
0 .....
1 .....
2 .fh..
3 ....f
4 .....
5 .....
6 .....
7 ..t..
8 .....
9 .....

Turn = 16.
  01234
0 .....
1 .....
2 .....
3 .....
4 .....
5 .....
6 .....
7 .....
8 .....
9 .tt..
0 .....
1 .....
2 .....
3 .....
4 ...h.
5 ...f.
6 .....
7 .....
8 .....
9 .....
0 .....
1 .....
2 .f...
3 ....f
4 .....
5 .....
6 ..t..
7 ..t..
8 .....
9 .....

Turn = 32.
  01234
0 .....
1 .....
2 .....
3 .....
4 .....
5 .....
6 .....
7 .....
8 .....
9 .tt..
0 .....
1 .....
2 .....
3 .....
4 ...h.
5 ...f.
6 .....
7 .....
8 .....
9 .....
0 .....
1 .....
2 .f...
3 ....f
4 .....
5 .....
6 ..t..
7 ..t..
8 .....
9 .....

*** Darwin 30x5 ***
Turn = 0.
  01234
0 .....
1 .r...
2 .....
3 .....
4 .....
5 .....
6 ...h.
7 .....
8 .....
9 ..t..
0 .....
1 .....
2 .....
3 .....
4 .....
5 ...f.
6 .....
7 .....
8 .....
9 .....
0 .....
1 .....
2 .fh..
3 ....f
4 .....
5 .....
6 .....
7 ..t..
8 .....
9 .....

Turn = 16.
  01234
0 .....
1 .....
2 .....
3 .....
4 .....
5 ....r
6 h....
7 .....
8 .....
9 ..t..
0 .....
1 .....
2 .....
3 .....
4 .....
5 ...f.
6 .....
7 .....
8 .....
9 .....
0 .....
1 .....
2 .fh..
3 ....f
4 .....
5 .....
6 .....
7 ..t..
8 .....
9 .....

Turn = 32.
  01234
0 .....
1 .....
2 .....
3 .....
4 .....
5 .....
6 h....
7 .....
8 .....
9 ..t..
0 .....
1 .....
2 .....
3 .....
4 .....
5 ...f.
6 .....
7 .....
8 .....
9 .....
0 .....
1 ....r
2 .fh..
3 ....f
4 .....
5 .....
6 .....
7 ..t..
8 .....
9 .....

*** Darwin 30x5 ***
Turn = 0.
  01234
0 .....
1 .r...
2 .....
3 .....
4 .....
5 .....
6 ...h.
7 .....
8 .....
9 ..t..
0 .....
1 .....
2 .....
3 .....
4 .....
5 ...f.
6 .....
7 .....
8 .....
9 .....
0 .....
1 .....
2 .fh..
3 ....f
4 .....
5 .....
6 .....
7 ..t..
8 .....
9 .....

Turn = 16.
  01234
0 .....
1 .....
2 .....
3 .....
4 .....
5 .....
6 h....
7 .....
8 .....
9 ..t..
0 .....
1 .....
2 .....
3 ....r
4 .....
5 ...f.
6 .....
7 .....
8 .....
9 .....
0 .....
1 .....
2 .f..h
3 ....f
4 .....
5 .....
6 .....
7 ..t..
8 .....
9 .....

Turn = 32.
  01234
0 .....
1 .....
2 .....
3 .....
4 .....
5 .....
6 h....
7 .....
8 .....
9 ..t..
0 .....
1 .....
2 .....
3 .....
4 .....
5 ...f.
6 .....
7 .....
8 .....
9 .....
0 r....
1 .....
2 .f...
3 .....
4 .....
5 .....
6 ....r
7 ..t..
8 ....r
9 .....

*** Darwin 18x4 ***
Turn = 0.
  0123
0 ....
1 h...
2 ....
3 ....
4 ....
5 ....
6 ....
7 ....
8 ....
9 ....
0 ....
1 t...
2 t...
3 h...
4 ....
5 ....
6 ....
7 ....

Turn = 16.
  0123
0 ....
1 ....
2 ....
3 ....
4 ....
5 ....
6 ....
7 ....
8 ....
9 ....
0 t...
1 t...
2 t...
3 ....
4 ....
5 ....
6 ....
7 h...

Turn = 32.
  0123
0 ....
1 ....
2 ....
3 ....
4 ....
5 ....
6 ....
7 ....
8 ....
9 ....
0 t...
1 t...
2 t...
3 ....
4 ....
5 ....
6 ....
7 h...

*** Darwin 25x10 ***
Turn = 0.
  0123456789
0 ..........
1 ........f.
2 ..........
3 ..........
4 ....h.....
5 ..........
6 ..f.......
7 .r........
8 ..........
9 ..........
0 ..........
1 .h..f.....
2 ..........
3 ..........
4 ..........
5 ..........
6 ..f.......
7 r.........
8 ..........
9 ..t.......
0 ..........
1 .........h
2 ..........
3 ..........
4 ..........

Turn = 10.
  0123456789
0 ....h.....
1 .h......f.
2 ..........
3 ..........
4 ..........
5 ..........
6 ..f......r
7 ..........
8 ..........
9 ..........
0 ..........
1 ....f.....
2 ..........
3 ..........
4 ..........
5 ..........
6 ..f.......
7 ..........
8 ..........
9 ..t.......
0 ..........
1 ..........
2 ..........
3 r.........
4 .........h

Turn = 20.
  0123456789
0 .h..h.....
1 ........f.
2 .........r
3 ..........
4 ..........
5 ..........
6 ..f.......
7 ..........
8 ..........
9 ..........
0 ..........
1 ....f.....
2 ..........
3 r.........
4 ..........
5 ..........
6 ..f.......
7 ..........
8 ..........
9 ..t.......
0 ..........
1 ..........
2 ..........
3 ..........
4 .........h

*** Darwin 24x19 ***
Turn = 0.
  0123456789012345678
0 ...................
1 ...................
2 ...................
3 ...................
4 .........r.........
5 ...................
6 ...................
7 ............h......
8 ...f..........f....
9 ...................
0 ...................
1 ...................
2 ...h...............
3 .................t.
4 ...................
5 ...................
6 .................t.
7 ...................
8 ...................
9 ...................
0 ...................
1 ............t......
2 ...h...............
3 ...................

*** Darwin 14x10 ***
Turn = 0.
  0123456789
0 ..........
1 ..........
2 ..t.......
3 ...h......
4 t.h.......
5 ..........
6 h.........
7 ..........
8 ..........
9 ..........
0 ..........
1 ..........
2 .........h
3 ..........

Turn = 16.
  0123456789
0 ...h.....h
1 ..........
2 ..t.......
3 ..t.......
4 t.........
5 ..........
6 ..........
7 ..........
8 ..........
9 ..........
0 ..........
1 ..........
2 ..........
3 h.........

Turn = 32.
  0123456789
0 ...h.....h
1 ..........
2 ..t.......
3 ..t.......
4 t.........
5 ..........
6 ..........
7 ..........
8 ..........
9 ..........
0 ..........
1 ..........
2 ..........
3 h.........

*** Darwin 25x20 ***
Turn = 0.
  01234567890123456789
0 ....................
1 ....................
2 ....................
3 ....................
4 ....................
5 .....t..............
6 ..........h.........
7 ....................
8 ........h...........
9 ....................
0 ...............h....
1 ....................
2 ....................
3 ................t...
4 ....................
5 ....................
6 ....................
7 ......h.............
8 ....................
9 ....................
0 ....................
1 ....................
2 ....................
3 ........t...........
4 ....................
