20

20 15
6
r 10 13 w
r 19 4 e
h 8 8 e
t 19 10 n
h 6 9 s
t 1 11 n
34 12

19 19
8
r 1 2 s
t 14 4 w
h 8 1 w
t 2 2 n
f 1 2 e
r 2 7 w
f 17 3 n
h 6 5 w
6 1

14 15
3
t 3 0 e
h 12 12 n
f 4 1 n
8 17

7 5
6
t 4 3 w
t 6 3 w
f 0 0 w
r 5 1 w
t 1 4 w
h 1 4 w
2 7

29 20
5
t 6 11 e
t 18 3 e
t 5 17 e
f 16 4 e
f 13 10 e
4 15

13 16
10
t 8 11 s
t 5 8 s
f 5 0 s
r 5 15 n
f 11 11 s
h 3 8 n
f 5 11 s
h 10 14 s
h 4 4 s
r 11 1 s
40 12

22 3
4
h 8 2 n
h 21 2 s
f 19 0 s
f 17 1 s
22 6

13 30
6
r 1 13 n
r 10 27 w
t 10 0 w
f 1 26 w
r 12 25 w
f 1 20 s
49 13

10 8
1
t 2 6 w
21 9

20 20
7
f 8 3 w
r 9 19 s
t 18 19 e
t 3 19 n
r 3 1 e
h 9 10 n
t 15 2 n
22 12

9 19
7
f 8 4 w
f 7 1 w
f 1 16 n
r 3 6 w
h 1 1 w
r 1 8 w
h 8 6 w
17 11

30 5
8
r 1 1 e
t 27 2 s
f 15 3 w
f 23 4 e
h 6 3 n
h 22 2 e
t 9 2 s
f 22 1 s
36 16

30 5
8
r 1 1 s
t 27 2 s
f 15 3 s
f 23 4 s
h 6 3 s
h 22 2 s
t 9 2 s
f 22 1 s
36 16

30 5
8
r 1 1 w
t 27 2 w
f 15 3 w
f 23 4 w
h 6 3 w
h 22 2 w
t 9 2 w
f 22 1 w
36 16

30 5
8
r 1 1 e
t 27 2 e
f 15 3 w
f 23 4 e
h 6 3 w
h 22 2 e
t 9 2 w
f 22 1 e
36 16

18 4
4
t 12 0 n
h 1 0 s
t 11 0 w
h 13 0 s
34 16

25 10
10
h 21 9 s
f 1 8 e
f 11 4 w
f 16 2 s
r 7 1 e
f 6 2 w
h 4 4 n
h 11 1 n
t 19 2 e
r 17 0 s
22 10

24 19
9
h 22 3 n
f 8 14 n
t 13 17 e
f 8 3 e
h 7 12 w
t 21 12 e
h 12 3 s
t 16 17 e
r 4 9 w
13 16

14 10
6
t 4 0 w
t 2 2 w
h 4 2 n
h 6 0 s
h 3 3 n
h 12 9 n
40 16

25 20
7
t 5 5 n
t 23 8 e
h 10 15 e
t 13 16 e
h 17 6 n
h 8 8 e
h 6 10 n
7 8
