25

6 8
7
h 5 6 w
f 3 2 e
r 5 5 n
h 1 4 e
h 4 6 s
f 1 6 e
t 2 2 s
5 1

7 6
7
t 4 3 n
r 4 4 s
t 2 3 e
f 1 2 s
f 1 4 w
t 3 4 w
r 0 2 e
10 2

7 8
8
h 6 0 n
r 3 0 w
t 6 2 n
r 4 3 s
f 0 3 e
f 1 6 w
r 2 4 s
f 4 6 n
20 4

8 7
6
h 1 4 s
t 0 3 s
t 3 2 s
h 3 5 s
h 0 2 n
f 6 3 n
10 2

6 6
6
t 2 3 n
r 3 1 w
f 1 5 e
f 1 0 s
t 3 1 w
h 2 3 w
5 1

8 6
8
t 0 3 w
f 6 2 s
f 2 4 s
t 3 2 w
h 3 4 w
t 1 1 n
t 7 0 n
h 1 4 w
5 1

6 7
6
f 1 5 e
f 4 5 e
r 1 0 s
h 4 1 w
h 1 5 w
r 3 0 n
15 3

7 7
6
t 2 6 n
f 5 5 w
h 0 5 w
r 0 6 s
f 0 1 n
t 5 3 n
20 4

8 8
11
f 0 0 n
r 2 3 w
r 5 0 n
r 5 4 s
t 6 0 s
r 4 6 e
h 5 6 w
r 1 5 n
r 5 6 e
t 0 3 n
t 7 1 s
20 4

7 7
8
t 3 0 e
t 5 1 n
f 3 6 w
t 1 6 n
t 0 0 n
f 3 1 s
r 2 2 w
f 6 2 e
15 3

6 6
6
h 3 4 s
t 1 4 s
f 3 5 n
f 3 2 s
r 5 3 e
r 2 4 n
20 4

8 8
9
h 5 2 w
f 2 4 s
h 0 2 w
t 2 2 e
t 7 1 w
h 7 0 n
h 6 7 n
r 0 2 e
r 4 2 e
15 3

7 8
8
r 3 0 s
r 6 0 s
h 5 6 w
t 0 6 w
r 3 0 s
f 2 4 w
r 0 1 e
h 5 1 n
20 4

8 8
11
h 4 6 s
t 7 1 w
f 7 2 n
r 5 2 n
h 4 0 n
h 1 7 s
r 3 4 e
h 2 1 w
f 5 1 s
h 0 3 n
r 1 7 s
10 2

8 7
8
t 3 1 w
f 6 6 s
f 6 2 e
t 1 2 w
t 3 3 s
h 5 6 s
r 4 1 s
t 5 0 n
15 3

6 6
6
h 4 4 w
t 3 1 e
r 5 2 s
r 2 5 n
f 3 3 e
t 3 1 w
20 4

8 6
7
t 3 3 w
h 4 3 s
r 6 3 w
t 2 0 n
f 5 3 n
t 5 4 n
f 6 0 e
15 3

6 6
6
t 0 4 n
r 5 2 e
r 1 4 w
f 5 5 n
r 3 1 n
h 5 1 w
20 4

7 6
7
r 4 4 n
f 5 0 n
r 6 0 w
h 5 1 w
t 5 5 s
f 2 4 e
t 3 0 n
10 2

8 6
8
h 6 2 n
t 4 0 n
t 3 2 n
h 1 5 n
f 7 1 s
r 4 3 w
t 4 1 e
f 4 5 s
15 3

6 8
6
r 1 1 n
r 2 4 e
r 4 7 s
r 3 0 w
f 2 5 w
r 3 5 e
20 4

7 7
8
f 6 2 w
h 5 3 e
t 6 2 s
h 3 0 w
t 1 2 w
r 2 3 w
f 5 6 s
t 0 4 s
10 2

7 8
10
r 6 1 n
t 0 3 n
t 4 5 s
t 0 4 s
h 5 2 s
r 5 7 e
t 0 1 w
r 5 2 w
f 1 0 n
h 2 2 w
10 2

8 6
8
f 3 4 n
h 0 5 n
t 1 3 e
f 2 4 e
h 6 5 n
r 7 1 w
f 2 0 e
r 2 2 e
5 1

6 7
6
r 1 4 w
r 2 1 w
f 5 6 w
f 2 0 s
f 3 0 e
h 2 1 n
5 1
